-85,-80,-83,-94,0,0,0,0,0
-85,-80,-83,-94,0,0,0,0,0
-80,-79,-80,-97,0,0,0,0,0
-80,-79,-80,-97,0,0,0,0,0
-80,-79,-80,-97,0,0,0,0,0
-81,-80,-85,-95,0,0,0,0,0
-81,-80,-85,-95,0,0,0,0,0
-81,-80,-85,-95,0,0,0,0,0
-77,-77,-83,-92,0,0,0,0,0
-77,-77,-83,-92,0,0,0,0,0
-78,-81,-81,-100,0,0,0,0,0
-78,-81,-81,-100,0,0,0,0,0
-78,-88,-81,-104,0,0,0,0,0
-78,-88,-81,-104,0,0,0,0,0
-78,-88,-81,-104,0,0,0,0,0
-82,-87,-79,-91,0,0,0,0,0
-82,-87,-79,-91,0,0,0,0,0
-80,-93,-83,-90,0,0,0,0,0
-80,-93,-83,-90,0,0,0,0,0
-79,-86,-77,-101,0,0,0,0,0
-79,-86,-77,-101,0,0,0,0,0
-79,-86,-77,-101,0,0,0,0,0
-81,-91,-81,-101,0,0,0,0,0
-81,-91,-81,-101,0,0,0,0,0
-83,-85,-79,-100,0,0,0,0,0
-83,-85,-79,-100,0,0,0,0,0
-83,-85,-79,-100,0,0,0,0,0
-84,-87,-78,-98,0,0,0,0,0
-84,-87,-78,-98,0,0,0,0,0
-81,-89,-84,-91,0,0,0,0,0
-81,-89,-84,-91,0,0,0,0,0
-81,-89,-84,-91,0,0,0,0,0
-83,-91,-94,-94,-101,0,0,0,0
-83,-91,-94,-94,-101,0,0,0,0
-81,-85,-93,-89,-101,0,0,0,0
-81,-85,-93,-89,-101,0,0,0,0
-86,-91,-85,-90,-108,0,0,0,0
-86,-91,-85,-90,-108,0,0,0,0
-86,-91,-85,-90,-108,0,0,0,0
-82,-89,-93,-88,-108,0,0,-100,0
-82,-89,-93,-88,-108,0,0,-100,0
-80,-84,-89,-85,-103,0,0,-94,0
-80,-84,-89,-85,-103,0,0,-94,0
-80,-84,-89,-85,-103,0,0,-94,0
-78,-83,-88,-88,-103,0,0,-94,0
-78,-83,-88,-88,-103,0,0,-94,0
-75,-86,-89,-94,-103,0,0,-94,0
-75,-86,-89,-94,-103,0,0,-94,0
-78,-85,-89,-95,-103,0,0,-94,0
-78,-85,-89,-95,-103,0,0,-94,0
-78,-85,-89,-95,-103,0,0,-94,0
-81,-89,-89,-89,-103,0,0,-94,0
-81,-89,-89,-89,-103,0,0,-94,0
-72,-84,-87,-90,-103,0,0,-94,0
-72,-84,-87,-90,-103,0,0,-94,0
-72,-84,-87,-90,-103,0,0,-94,0
-71,-83,-92,-87,-103,0,0,-94,0
-71,-83,-92,-87,-103,0,0,-94,0
-75,-82,-89,-83,-103,0,0,-94,0
-75,-82,-89,-83,-103,0,0,-94,0
-76,-80,-89,-86,-105,0,0,-94,0
-76,-80,-89,-86,-105,0,0,-94,0
-76,-80,-89,-86,-105,0,0,-94,0
-73,-77,-89,-94,-105,0,0,-94,0
-73,-77,-89,-94,-105,0,0,-94,0
-75,-79,-88,-99,-105,0,0,-94,0
-75,-79,-88,-99,-105,0,0,-94,0
-75,-79,-88,-99,-105,0,0,-94,0
-69,-75,-87,-96,-105,0,-103,-94,0
-69,-75,-87,-96,-105,0,-103,-94,0
-69,-75,-87,-96,-105,0,-103,-94,0
-76,-82,-90,-92,-105,0,-103,-94,0
-76,-82,-90,-92,-105,0,-103,-94,0
-76,-82,-90,-92,-105,0,-103,-94,0
-80,-82,-88,-84,-105,0,-103,-94,0
-80,-82,-88,-84,-105,0,-103,-94,0
-80,-82,-88,-84,-105,0,-103,-94,0
-69,-86,-88,-88,-105,0,-103,-94,0
-69,-86,-88,-88,-105,0,-103,-94,0
-69,-86,-88,-88,-105,0,-103,-94,0
-73,-76,-87,-91,-108,0,-103,-94,0
-73,-76,-87,-91,-108,0,-103,-94,0
-69,-81,-93,-88,-104,0,-103,-94,0
-69,-81,-93,-88,-104,0,-103,-94,0
-69,-81,-93,-88,-104,0,-103,-94,0
-79,-81,-91,-84,-104,0,-103,-94,0
-79,-81,-91,-84,-104,0,-103,-94,0
-81,-84,-91,-84,-104,0,-103,-94,0
-81,-84,-91,-84,-104,0,-103,-94,0
-78,-83,-91,-98,-103,0,-103,-94,0
-78,-83,-91,-98,-103,0,-103,-94,0
-78,-83,-91,-98,-103,0,-103,-94,0
-86,-86,-90,-98,-111,0,-103,-94,0
-86,-86,-90,-98,-111,0,-103,-94,0
-86,-86,-90,-98,-111,0,-103,-94,0
-73,-83,-89,-97,-99,0,-103,-94,0
-73,-83,-89,-97,-99,0,-103,-94,0
-80,-90,-85,-93,-103,0,-103,-94,0
-80,-90,-85,-93,-103,0,-103,-94,0
-80,-90,-85,-93,-103,0,-103,-94,0
-81,-87,-88,-91,-101,0,-103,-94,0
-81,-87,-88,-91,-101,0,-103,-94,0
-81,-87,-88,-91,-101,0,-103,-94,0
-78,-86,-91,-97,-98,0,-103,-94,0
-78,-86,-91,-97,-98,0,-103,-94,0
-78,-86,-91,-97,-98,0,-103,-94,0
-74,-84,-89,-95,-101,0,-103,-94,0
-74,-84,-89,-95,-101,0,-103,-94,0
-74,-84,-89,-95,-101,0,-103,-94,0
-78,-79,-91,-93,-101,0,-103,-94,0
-78,-79,-91,-93,-101,0,-103,-94,0
-80,-82,-86,-92,-106,0,-103,-94,0
-80,-82,-86,-92,-106,0,-103,-94,0
-80,-82,-86,-92,-106,0,-103,-94,0
-80,-91,-84,-98,-102,0,-103,-94,0
-80,-91,-84,-98,-102,0,-103,-94,0
-80,-91,-84,-98,-102,0,-103,-94,0
-82,-83,-94,-99,-106,0,-103,-94,0
-82,-83,-94,-99,-106,0,-103,-94,0
-82,-83,-94,-99,-106,0,-103,-94,0
-76,-83,-85,-99,-97,0,-103,-94,0
-76,-83,-85,-99,-97,0,-103,-94,0
-76,-83,-85,-99,-97,0,-103,-94,0
-76,-83,-83,-97,-104,0,-103,-94,0
-76,-83,-83,-97,-104,0,-103,-94,0
-76,-83,-83,-97,-104,0,-103,-94,0
-90,-80,-83,-98,-99,0,-103,-94,0
-90,-80,-83,-98,-99,0,-103,-94,0
-85,-79,-84,-103,-101,0,-103,-94,0
-85,-79,-84,-103,-101,0,-103,-94,0
-85,-79,-84,-103,-101,0,-103,-94,0
-82,-73,-84,-96,-101,0,-103,-94,-89
-82,-73,-84,-96,-101,0,-103,-94,-89
-75,-90,-82,-92,-102,0,-103,-94,-89
-75,-90,-82,-92,-102,0,-103,-94,-89
-75,-90,-82,-92,-102,0,-103,-94,-89
-78,-88,-82,-107,-105,0,-103,-94,-89
-78,-88,-82,-107,-105,0,-103,-94,-89
-81,-84,-85,-107,-103,0,-103,-94,-89
-81,-84,-85,-107,-103,0,-103,-94,-89
-79,-84,-86,-107,-104,0,-103,-94,-89
-79,-84,-86,-107,-104,0,-103,-94,-89
-79,-84,-86,-107,-104,0,-103,-94,-89
-74,-82,-80,-104,-100,0,-103,-94,-89
-74,-82,-80,-104,-100,0,-103,-94,-89
-72,-80,-79,-104,-100,0,-103,-94,-89
-72,-80,-79,-104,-100,0,-103,-94,-89
-72,-80,-79,-104,-100,0,-103,-94,-89
-79,-79,-81,-97,-100,0,-103,-94,-89
-79,-79,-81,-97,-100,0,-103,-94,-89
-80,-76,-84,-100,-100,0,-103,-94,-89
-80,-76,-84,-100,-100,0,-103,-94,-89
-73,-80,-82,-93,-100,0,-103,-94,-89
-73,-80,-82,-93,-100,0,-103,-94,-89
-73,-84,-83,-99,-100,0,-103,-94,-89
-73,-84,-83,-99,-100,0,-103,-94,-89
-84,-77,-88,-96,-100,0,-103,-94,-89
-84,-77,-88,-96,-100,0,-103,-94,-89
-84,-77,-88,-96,-100,0,-103,-94,-89
-81,-85,-76,-95,-100,0,-103,-94,-89
-81,-85,-76,-95,-100,0,-103,-94,-89
-73,-77,-79,-90,-100,0,-103,-94,-89
-73,-77,-79,-90,-100,0,-103,-94,-89
-83,-80,-86,-96,-100,0,-103,-94,-89
-83,-80,-86,-96,-100,0,-103,-94,-89
-83,-80,-86,-96,-100,0,-103,-94,-89
-79,-81,-79,-95,-100,0,-103,-94,-89
-79,-81,-79,-95,-100,0,-103,-94,-89
-82,-85,-78,-93,-100,0,-103,-94,-89
-82,-85,-78,-93,-100,0,-103,-94,-89
-82,-85,-78,-93,-100,0,-103,-94,-89
-82,-81,-84,-95,-100,0,-103,-94,-89
-82,-81,-84,-95,-100,0,-103,-94,-89
-81,-81,-81,-94,-100,0,-103,-94,-89
-81,-81,-81,-94,-100,0,-103,-94,-89
-81,-81,-81,-94,-100,0,-103,-94,-89
-79,-88,-84,-95,-100,0,-103,-94,-89
-79,-88,-84,-95,-100,0,-103,-94,-89
-76,-87,-84,-97,-100,0,-103,-94,-89
-76,-87,-84,-97,-100,0,-103,-94,-89
-76,-87,-84,-97,-100,0,-103,-94,-89
-78,-82,-85,-97,-100,0,-103,-94,-89
-78,-82,-85,-97,-100,0,-103,-94,-89
-78,-91,-79,-97,-100,0,-103,-94,-89
-78,-91,-79,-97,-100,0,-103,-94,-89
-78,-91,-79,-97,-100,0,-103,-94,-89
-78,-85,-84,-89,-101,0,-103,-94,-89
-78,-85,-84,-89,-101,0,-103,-94,-89
-78,-85,-84,-89,-101,0,-103,-94,-89
-75,-82,-87,-96,-101,0,-103,-94,-89
-75,-82,-87,-96,-101,0,-103,-94,-89
-75,-82,-87,-96,-101,0,-103,-94,-89
-75,-80,-86,-100,-101,0,-103,-94,-89
-75,-80,-86,-100,-101,0,-103,-94,-89
-75,-80,-86,-100,-101,0,-103,-94,-89
-75,-82,-85,-100,-101,0,-103,-94,-89
-75,-82,-85,-100,-101,0,-103,-94,-89
-75,-82,-85,-100,-101,0,-103,-94,-89
-75,-81,-86,-99,-101,0,-103,-94,-89
-75,-81,-86,-99,-101,0,-103,-94,-89
-76,-80,-84,-97,-101,0,-103,-94,-89
-76,-80,-84,-97,-101,0,-103,-94,-89
-75,-81,-88,-98,-101,0,-103,-94,-89
-75,-81,-88,-98,-101,0,-103,-94,-89
-75,-79,-85,-98,-101,0,-103,-94,-89
-75,-79,-85,-98,-101,0,-103,-94,-89
-79,-87,-83,-90,-101,0,-103,-94,-89
-79,-87,-83,-90,-101,0,-103,-94,-89
-74,-85,-78,-96,-101,0,-103,-94,-89
-74,-85,-78,-96,-101,0,-103,-94,-89
-74,-85,-78,-96,-101,0,-103,-94,-89
-81,-85,-78,-95,-101,0,-103,-94,-89
-81,-85,-78,-95,-101,0,-103,-94,-89
-81,-85,-78,-95,-101,0,-103,-94,-89
-82,-88,-80,-99,-101,0,-103,-94,-89
-82,-88,-80,-99,-101,0,-103,-94,-89
-82,-88,-80,-99,-101,0,-103,-94,-89
-81,-86,-81,-94,-107,0,-103,-94,-89
-81,-86,-81,-94,-107,0,-103,-94,-89
-77,-82,-81,-93,-107,0,-103,-94,-89
-77,-82,-81,-93,-107,0,-103,-94,-89
-77,-82,-81,-93,-107,0,-103,-94,-89
-82,-87,-82,-94,-107,0,-103,-94,-89
-82,-87,-82,-94,-107,0,-103,-94,-89
-80,-84,-85,-95,-107,0,-103,-94,-89
-80,-84,-85,-95,-107,0,-103,-94,-89
-80,-84,-85,-95,-107,0,-103,-94,-89
-80,-93,-83,-95,-107,0,-103,-94,-89
-80,-93,-83,-95,-107,0,-103,-94,-89
-82,-90,-79,-96,-107,0,-103,-94,-89
-82,-90,-79,-96,-107,0,-103,-94,-89
-82,-90,-79,-96,-107,0,-103,-94,-89
-77,-88,-83,-98,-107,0,-103,-94,-89
-77,-88,-83,-98,-107,0,-103,-94,-89
-77,-88,-83,-98,-107,0,-103,-94,-89
-79,-86,-85,-98,-107,0,-103,-94,-89
-79,-86,-85,-98,-107,0,-103,-94,-89
-79,-86,-85,-98,-107,0,-103,-94,-89
-78,-87,-87,-87,-107,0,-103,-94,-89
-78,-87,-87,-87,-107,0,-103,-94,-89
-76,-88,-88,-88,-107,0,-103,-94,-89
-76,-88,-88,-88,-107,0,-103,-94,-89
-76,-88,-88,-88,-107,0,-103,-94,-89
-79,-88,-92,-88,-107,0,-103,-94,-89
-79,-88,-92,-88,-107,0,-103,-94,-89
-79,-88,-92,-88,-107,0,-103,-94,-89
-77,-83,-92,-94,-93,0,-103,-94,-89
-77,-83,-92,-94,-93,0,-103,-94,-89
-73,-87,-90,-92,-94,0,-103,-94,-89
-73,-87,-90,-92,-94,0,-103,-94,-89
-73,-87,-90,-92,-94,0,-103,-94,-89
-74,-92,-89,-89,-94,0,-103,-94,-89
-74,-92,-89,-89,-94,0,-103,-94,-89
-71,-84,-91,-90,-94,0,-103,-94,-89
-71,-84,-91,-90,-94,0,-103,-94,-89
-71,-84,-91,-90,-94,0,-103,-94,-89
-68,-79,-92,-95,-93,0,-103,-94,-89
-68,-79,-92,-95,-93,0,-103,-94,-89
-73,-84,-91,-90,-93,0,-103,-94,-89
-73,-84,-91,-90,-93,0,-103,-94,-89
-73,-84,-91,-90,-93,0,-103,-94,-89
-74,-81,-96,-86,-90,0,-103,-94,-89
-74,-81,-96,-86,-90,0,-103,-94,-89
-72,-82,-91,-83,-90,0,-103,-94,-89
-72,-82,-91,-83,-90,0,-103,-94,-89
-68,-81,-91,-86,-90,0,-103,-94,-89
-68,-81,-91,-86,-90,0,-103,-94,-89
-68,-81,-91,-86,-90,0,-103,-94,-89
-71,-84,-95,-88,-90,0,-103,-94,-89
-71,-84,-95,-88,-90,0,-103,-94,-89
-73,-78,-90,-85,-90,0,-103,-94,-89
-73,-78,-90,-85,-90,0,-103,-94,-89
-71,-80,-94,-91,-89,0,-103,-94,-89
-71,-80,-94,-91,-89,0,-103,-94,-89
-71,-80,-94,-91,-89,0,-103,-94,-89
-81,-82,-93,-90,-95,0,-103,-94,-89
-81,-82,-93,-90,-95,0,-103,-94,-89
-80,-81,-86,-96,-94,0,-103,-94,-89
-80,-81,-86,-96,-94,0,-103,-94,-89
-80,-81,-86,-96,-94,0,-103,-94,-89
-76,-81,-87,-98,-94,0,-103,-94,-89
-76,-81,-87,-98,-94,0,-103,-94,-89
-76,-81,-87,-98,-94,0,-103,-94,-89
-76,-82,-93,-104,-91,0,-103,-94,-89
-76,-82,-93,-104,-91,0,-103,-94,-89
-76,-82,-93,-104,-91,0,-103,-94,-89
-76,-86,-91,-93,-98,0,-103,-94,-89
-76,-86,-91,-93,-98,0,-103,-94,-89
-78,-85,-95,-102,-95,0,-103,-94,-89
-78,-85,-95,-102,-95,0,-103,-94,-89
-78,-85,-95,-102,-95,0,-103,-94,-89
-83,-84,-82,-98,-98,0,-103,-94,-89
-83,-84,-82,-98,-98,0,-103,-94,-89
-77,-84,-83,-98,-98,0,-103,-94,-89
-77,-84,-83,-98,-98,0,-103,-94,-89
-76,-80,-89,-102,-91,0,-103,-94,-89
-76,-80,-89,-102,-91,0,-103,-94,-89
-76,-80,-89,-102,-91,0,-103,-94,-89
-83,-81,-80,-97,-97,0,-103,-94,-89
-83,-81,-80,-97,-97,0,-103,-94,-89
-79,-77,-82,-98,-92,0,-103,-94,-89
-79,-77,-82,-98,-92,0,-103,-94,-89
-79,-77,-82,-98,-92,0,-103,-94,-89
-76,-73,-82,-97,-87,0,-103,-94,-89
-76,-73,-82,-97,-87,0,-103,-94,-89
-76,-73,-82,-97,-87,0,-103,-94,-89
-73,-85,-81,-98,-87,0,-103,-94,-89
-73,-85,-81,-98,-87,0,-103,-94,-89
-73,-85,-81,-98,-87,0,-103,-94,-89
-74,-78,-87,-99,-94,0,-103,-94,-89
-74,-78,-87,-99,-94,0,-103,-94,-89
-73,-86,-76,-99,-94,0,-103,-94,-89
-73,-86,-76,-99,-94,0,-103,-94,-89
-73,-86,-76,-99,-94,0,-103,-94,-89
-73,-78,-80,-99,-94,0,-103,-94,-89
-73,-78,-80,-99,-94,0,-103,-94,-89
-73,-78,-80,-99,-94,0,-103,-94,-89
-76,-79,-78,-93,-94,0,-103,-94,-89
-76,-79,-78,-93,-94,0,-103,-94,-89
-76,-79,-78,-93,-94,0,-103,-94,-89
-73,-77,-76,-95,-94,0,-103,-94,-89
-73,-77,-76,-95,-94,0,-103,-94,-89
-73,-77,-76,-95,-94,0,-103,-94,-89
-78,-80,-81,-95,-94,0,-103,-94,-89
-78,-80,-81,-95,-94,0,-103,-94,-89
-78,-80,-81,-95,-94,0,-103,-94,-89
-71,-81,-80,-95,-94,0,-103,-94,-89
-71,-81,-80,-95,-94,0,-103,-94,-89
-71,-90,-80,-95,-94,0,-103,-94,-89
-71,-90,-80,-95,-94,0,-103,-94,-89
-71,-90,-80,-95,-94,0,-103,-94,-89
-79,-82,-82,-92,-94,-93,-103,-94,-89
-79,-82,-82,-92,-94,-93,-103,-94,-89
-82,-79,-83,-91,-94,-99,-103,-94,-89
-82,-79,-83,-91,-94,-99,-103,-94,-89
-82,-79,-83,-91,-94,-99,-103,-94,-89
-75,-84,-78,-100,-94,-99,-103,-94,-89
-75,-84,-78,-100,-94,-99,-103,-94,-89
-78,-88,-80,-94,-94,-99,-103,-94,-89
-78,-88,-80,-94,-94,-99,-103,-94,-89
-83,-79,-80,-99,-94,-99,-103,-94,-89
-83,-79,-80,-99,-94,-99,-103,-94,-89
-83,-79,-80,-99,-94,-99,-103,-94,-89
-83,-90,-80,-100,-94,-99,-103,-94,-89
-83,-90,-80,-100,-94,-99,-103,-94,-89
-83,-90,-79,-94,-104,-99,-103,-94,-89
-83,-90,-79,-94,-104,-99,-103,-94,-89
-83,-90,-79,-94,-104,-99,-103,-94,-89
-80,-85,-77,-96,-104,-99,-103,-94,-89
-80,-85,-77,-96,-104,-99,-103,-94,-89
-83,-86,-81,-100,-104,-99,-103,-94,-89
-83,-86,-81,-100,-104,-99,-103,-94,-89
-82,-92,-81,-101,-104,-99,-103,-94,-89
-82,-92,-81,-101,-104,-99,-103,-94,-89
-82,-92,-81,-101,-104,-99,-103,-94,-89
-81,-88,-76,-100,-104,-99,-103,-94,-89
-81,-88,-76,-100,-104,-99,-103,-94,-89
-81,-88,-76,-100,-104,-99,-103,-94,-89
-86,-86,-84,-97,-104,-99,-103,-94,-89
-86,-86,-84,-97,-104,-99,-103,-94,-89
-86,-86,-84,-97,-104,-99,-103,-94,-89
-83,-82,-94,-95,-104,-99,-103,-94,-89
-83,-82,-94,-95,-104,-99,-103,-94,-89
-84,-82,-94,-95,-104,-99,-103,-94,-89
-84,-82,-94,-95,-104,-99,-103,-94,-89
-84,-82,-94,-95,-104,-99,-103,-94,-89
-83,-85,-99,-90,-104,-99,-103,-94,-89
-83,-85,-99,-90,-104,-99,-103,-94,-89
-75,-85,-91,-89,-104,-99,-103,-94,-89
-75,-85,-91,-89,-104,-99,-103,-94,-89
-75,-85,-91,-89,-104,-99,-103,-94,-89
-73,-88,-87,-92,-104,-99,-103,-94,-89
-73,-88,-87,-92,-104,-99,-103,-94,-89
-75,-89,-86,-87,-104,-99,-103,-94,-89
-75,-89,-86,-87,-104,-99,-103,-94,-89
-78,-87,-91,-91,-104,-99,-103,-94,-89
-78,-87,-91,-91,-104,-99,-103,-94,-89
-79,-83,-86,-88,-104,-99,-103,-94,-89
-79,-83,-86,-88,-104,-99,-103,-94,-89
-79,-83,-86,-88,-104,-99,-103,-94,-89
-74,-82,-91,-91,-101,-99,-103,-94,-89
-74,-82,-91,-91,-101,-99,-103,-94,-89
-74,-82,-91,-91,-101,-99,-103,-94,-89
-72,-82,-93,-94,-101,-99,-103,-94,-89
-72,-82,-93,-94,-101,-99,-103,-94,-89
