-109
-109
-109
-107
-107
-112
-112
-112
-113
-113
-110
-110
-110
-107
-107
-107
-107
-105
-105
-105
-106
-106
-111
-111
-110
-110
-110
-113
-113
-113
-113
-113
-110
-110
-111
-111
-111
-109
-109
-108
-108
-108
-110
-110
-106
-106
-110
-110
-110
-111
-111
-105
-105
-105
-106
-106
-107
-107
-108
-108
-108
-123
-123
-125
-125
-125
-116
-116
-117
-117
-126
-126
-126
-119
-119
-120
-120
-120
-120
-120
-121
-121
-121
-122
-122
-121
-121
-116
-116
-116
-117
-117
-121
-121
-121
-122
-122
-123
-123
-123
-125
-125
-125
-125
-125
-126
-126
-126
-124
-124
-121
-121
-121
-121
-121
-121
-123
-123
-123
-122
-122
-122
-123
-123
-123
-123
-123
-119
-119
-119
-121
-121
-123
-123
-123
-123
-123
-122
-122
-122
-122
-122
-123
-123
-123
-123
-123
-123
-123
-123
-123
-124
-124
-124
-117
-117
-116
-116
-116
-116
-116
-116
-116
-117
-117
-117
-117
-117
-117
-117
-117
-117
-117
-117
-117
-117
-117
-116
-116
-116
-116
-116
-116
-108
-108
-115
-115
-115
-119
-119
-108
-108
-109
-109
-109
-121
-121
-121
-121
-121
-120
-120
-120
-120
-120
-120
-120
-120
-120
-123
-123
-123
-109
-109
-109
-109
-109
-110
-110
-110
-109
-109
-107
-107
-107
-111
-111
-111
-106
-106
-106
-106
-106
-106
-106
-106
-111
-111
-111
-108
-108
-108
-107
-107
-107
-110
-110
-107
-107
