-124
-124
-124
-121
-121
-117
-117
-117
-118
-118
-119
-119
-119
-120
-120
-119
-119
-119
-112
-112
-110
-110
-110
-111
-111
-115
-115
-116
-116
-116
-116
-116
-116
-116
-116
-116
-117
-117
-117
-111
-111
-121
-121
-121
-121
-122
-122
-121
-121
-120
-120
-120
-113
-113
-111
-111
-112
-112
-112
-117
-117
-117
-113
-113
-113
-115
-115
-116
-116
-116
-114
-114
-115
-115
-115
-114
-114
-113
-113
-111
-111
-111
-113
-113
-116
-116
-116
-117
-117
-120
-120
-119
-119
-119
-117
-117
-119
-119
-119
-117
-117
-117
-124
-124
-124
-121
-121
-117
-117
-117
-118
-118
-120
-120
-118
-118
-117
-117
-120
-120
-120
-115
-115
-115
-115
-115
-115
-115
-115
-115
-115
-115
-115
-115
-115
-115
-115
-115
-115
-115
-114
-114
-114
-115
-115
-115
-115
-115
-115
-115
-115
-115
-116
-116
-116
-116
-116
-116
-116
-116
-116
-116
-116
-116
-117
-117
-117
-116
-116
-116
-116
-117
-117
-117
-117
-117
-117
-117
-117
-118
-118
-118
-115
-115
-114
-114
-114
-116
-116
-116
-116
-116
-116
-117
-117
-117
-117
-117
-117
-116
-116
-119
-119
-119
-120
-120
-120
-121
-121
-121
-121
-121
-121
-120
-120
-120
-122
-122
-122
-118
-118
-119
-119
-119
-124
-124
-125
-125
-125
-126
-126
-123
-123
-123
-135
-135
