-104
-104
-104
-96
-96
-95
-95
-96
-96
-96
-101
-101
-103
-103
-103
-103
-103
-104
-104
-102
-102
-102
-102
-102
-103
-103
-103
-103
-103
-103
-103
-103
-103
-103
-102
-102
-104
-104
-103
-103
-103
-100
-100
-100
-102
-102
-102
-101
-101
-96
-96
-96
-96
-96
-98
-98
-102
-102
-102
-101
-101
-101
-101
-101
-101
-101
-101
-101
-100
-100
-100
-100
-100
-99
-99
-99
-100
-100
-99
-99
-99
-95
-95
-95
-95
-95
-95
-96
-96
-95
-95
-95
-95
-95
-95
-95
-96
-96
-96
-96
-96
-96
-96
-96
-96
-96
-96
-96
-96
-96
-96
-94
-94
-94
-94
-94
-94
-94
-95
-95
-95
-95
-95
-95
-95
-95
-95
-95
-95
-94
-94
-94
-95
-95
-95
-95
-95
-95
-97
-97
-97
-96
-96
-97
-97
-97
-97
