{
    "measurements": {
        "m0": [
            {
                "technology": "LTE",
                "cell_id": "131078",
                "MCC": "505",
                "MNC": "01",
                "PCI": "6",
                "TAC": "7",
                "RSPR": "-95",
                "time": 1649151809180,
                "registered?": "1"
            }
        ],
        "m1": [
            {
                "technology": "LTE",
                "cell_id": "131078",
                "MCC": "505",
                "MNC": "01",
                "PCI": "6",
                "TAC": "7",
                "RSPR": "-95",
                "time": 1649151810151,
                "registered?": "1"
            }
        ],
        "m2": [
            {
                "technology": "LTE",
                "cell_id": "131078",
                "MCC": "505",
                "MNC": "01",
                "PCI": "6",
                "TAC": "7",
                "RSPR": "-93",
                "time": 1649151811188,
                "registered?": "1"
            }
        ],
        "m3": [
            {
                "technology": "LTE",
                "cell_id": "131078",
                "MCC": "505",
                "MNC": "01",
                "PCI": "6",
                "TAC": "7",
                "RSPR": "-93",
                "time": 1649151812164,
                "registered?": "1"
            }
        ],
        "m4": [
            {
                "technology": "LTE",
                "cell_id": "131078",
                "MCC": "505",
                "MNC": "01",
                "PCI": "6",
                "TAC": "7",
                "RSPR": "-94",
                "time": 1649151813191,
                "registered?": "1"
            }
        ],
        "m5": [
            {
                "technology": "LTE",
                "cell_id": "131078",
                "MCC": "505",
                "MNC": "01",
                "PCI": "6",
                "TAC": "7",
                "RSPR": "-94",
                "time": 1649151814164,
                "registered?": "1"
            }
        ],
        "m6": [
            {
                "technology": "LTE",
                "cell_id": "131078",
                "MCC": "505",
                "MNC": "01",
                "PCI": "6",
                "TAC": "7",
                "RSPR": "-94",
                "time": 1649151815155,
                "registered?": "1"
            }
        ],
        "m7": [
            {
                "technology": "LTE",
                "cell_id": "131078",
                "MCC": "505",
                "MNC": "01",
                "PCI": "6",
                "TAC": "7",
                "RSPR": "-97",
                "time": 1649151816156,
                "registered?": "1"
            }
        ],
        "m8": [
            {
                "technology": "LTE",
                "cell_id": "131078",
                "MCC": "505",
                "MNC": "01",
                "PCI": "6",
                "TAC": "7",
                "RSPR": "-97",
                "time": 1649151817163,
                "registered?": "1"
            }
        ],
        "m9": [
            {
                "technology": "LTE",
                "cell_id": "131078",
                "MCC": "505",
                "MNC": "01",
                "PCI": "6",
                "TAC": "7",
                "RSPR": "-101",
                "time": 1649151818188,
                "registered?": "1"
            }
        ],
        "m10": [
            {
                "technology": "LTE",
                "cell_id": "131078",
                "MCC": "505",
                "MNC": "01",
                "PCI": "6",
                "TAC": "7",
                "RSPR": "-101",
                "time": 1649151819164,
                "registered?": "1"
            }
        ],
        "m11": [
            {
                "technology": "LTE",
                "cell_id": "131078",
                "MCC": "505",
                "MNC": "01",
                "PCI": "6",
                "TAC": "7",
                "RSPR": "-96",
                "time": 1649151820187,
                "registered?": "1"
            }
        ],
        "m12": [
            {
                "technology": "LTE",
                "cell_id": "131078",
                "MCC": "505",
                "MNC": "01",
                "PCI": "6",
                "TAC": "7",
                "RSPR": "-96",
                "time": 1649151821155,
                "registered?": "1"
            }
        ],
        "m13": [
            {
                "technology": "LTE",
                "cell_id": "131078",
                "MCC": "505",
                "MNC": "01",
                "PCI": "6",
                "TAC": "7",
                "RSPR": "-96",
                "time": 1649151822151,
                "registered?": "1"
            }
        ],
        "m14": [
            {
                "technology": "LTE",
                "cell_id": "131078",
                "MCC": "505",
                "MNC": "01",
                "PCI": "6",
                "TAC": "7",
                "RSPR": "-98",
                "time": 1649151823187,
                "registered?": "1"
            }
        ],
        "m15": [
            {
                "technology": "LTE",
                "cell_id": "131078",
                "MCC": "505",
                "MNC": "01",
                "PCI": "6",
                "TAC": "7",
                "RSPR": "-98",
                "time": 1649151824162,
                "registered?": "1"
            }
        ],
        "m16": [
            {
                "technology": "LTE",
                "cell_id": "131078",
                "MCC": "505",
                "MNC": "01",
                "PCI": "6",
                "TAC": "7",
                "RSPR": "-97",
                "time": 1649151825177,
                "registered?": "1"
            }
        ],
        "m17": [
            {
                "technology": "LTE",
                "cell_id": "131078",
                "MCC": "505",
                "MNC": "01",
                "PCI": "6",
                "TAC": "7",
                "RSPR": "-97",
                "time": 1649151826165,
                "registered?": "1"
            }
        ],
        "m18": [
            {
                "technology": "LTE",
                "cell_id": "131078",
                "MCC": "505",
                "MNC": "01",
                "PCI": "6",
                "TAC": "7",
                "RSPR": "-97",
                "time": 1649151827149,
                "registered?": "1"
            }
        ],
        "m19": [
            {
                "technology": "LTE",
                "cell_id": "131078",
                "MCC": "505",
                "MNC": "01",
                "PCI": "6",
                "TAC": "7",
                "RSPR": "-100",
                "time": 1649151828172,
                "registered?": "1"
            }
        ],
        "m20": [
            {
                "technology": "LTE",
                "cell_id": "131078",
                "MCC": "505",
                "MNC": "01",
                "PCI": "6",
                "TAC": "7",
                "RSPR": "-100",
                "time": 1649151829156,
                "registered?": "1"
            }
        ],
        "m21": [
            {
                "technology": "LTE",
                "cell_id": "131078",
                "MCC": "505",
                "MNC": "01",
                "PCI": "6",
                "TAC": "7",
                "RSPR": "-97",
                "time": 1649151830188,
                "registered?": "1"
            }
        ],
        "m22": [
            {
                "technology": "LTE",
                "cell_id": "131078",
                "MCC": "505",
                "MNC": "01",
                "PCI": "6",
                "TAC": "7",
                "RSPR": "-97",
                "time": 1649151831163,
                "registered?": "1"
            }
        ],
        "m23": [
            {
                "technology": "LTE",
                "cell_id": "131078",
                "MCC": "505",
                "MNC": "01",
                "PCI": "6",
                "TAC": "7",
                "RSPR": "-98",
                "time": 1649151832186,
                "registered?": "1"
            }
        ],
        "m24": [
            {
                "technology": "LTE",
                "cell_id": "131078",
                "MCC": "505",
                "MNC": "01",
                "PCI": "6",
                "TAC": "7",
                "RSPR": "-98",
                "time": 1649151833151,
                "registered?": "1"
            }
        ],
        "m25": [
            {
                "technology": "LTE",
                "cell_id": "131078",
                "MCC": "505",
                "MNC": "01",
                "PCI": "6",
                "TAC": "7",
                "RSPR": "-98",
                "time": 1649151834162,
                "registered?": "1"
            }
        ],
        "m26": [
            {
                "technology": "LTE",
                "cell_id": "131078",
                "MCC": "505",
                "MNC": "01",
                "PCI": "6",
                "TAC": "7",
                "RSPR": "-99",
                "time": 1649151835185,
                "registered?": "1"
            }
        ],
        "m27": [
            {
                "technology": "LTE",
                "cell_id": "131078",
                "MCC": "505",
                "MNC": "01",
                "PCI": "6",
                "TAC": "7",
                "RSPR": "-99",
                "time": 1649151836163,
                "registered?": "1"
            }
        ],
        "m28": [
            {
                "technology": "LTE",
                "cell_id": "131078",
                "MCC": "505",
                "MNC": "01",
                "PCI": "6",
                "TAC": "7",
                "RSPR": "-99",
                "time": 1649151837162,
                "registered?": "1"
            }
        ],
        "m29": [
            {
                "technology": "LTE",
                "cell_id": "131078",
                "MCC": "505",
                "MNC": "01",
                "PCI": "6",
                "TAC": "7",
                "RSPR": "-98",
                "time": 1649151838173,
                "registered?": "1"
            }
        ],
        "m30": [
            {
                "technology": "LTE",
                "cell_id": "131078",
                "MCC": "505",
                "MNC": "01",
                "PCI": "6",
                "TAC": "7",
                "RSPR": "-98",
                "time": 1649151839151,
                "registered?": "1"
            }
        ],
        "m31": [
            {
                "technology": "LTE",
                "cell_id": "131078",
                "MCC": "505",
                "MNC": "01",
                "PCI": "6",
                "TAC": "7",
                "RSPR": "-97",
                "time": 1649151840183,
                "registered?": "1"
            }
        ],
        "m32": [
            {
                "technology": "LTE",
                "cell_id": "131078",
                "MCC": "505",
                "MNC": "01",
                "PCI": "6",
                "TAC": "7",
                "RSPR": "-97",
                "time": 1649151841160,
                "registered?": "1"
            }
        ],
        "m33": [
            {
                "technology": "LTE",
                "cell_id": "131078",
                "MCC": "505",
                "MNC": "01",
                "PCI": "6",
                "TAC": "7",
                "RSPR": "-97",
                "time": 1649151842160,
                "registered?": "1"
            }
        ],
        "m34": [
            {
                "technology": "LTE",
                "cell_id": "131078",
                "MCC": "505",
                "MNC": "01",
                "PCI": "6",
                "TAC": "7",
                "RSPR": "-98",
                "time": 1649151843181,
                "registered?": "1"
            }
        ],
        "m35": [
            {
                "technology": "LTE",
                "cell_id": "131078",
                "MCC": "505",
                "MNC": "01",
                "PCI": "6",
                "TAC": "7",
                "RSPR": "-98",
                "time": 1649151844157,
                "registered?": "1"
            }
        ],
        "m36": [
            {
                "technology": "LTE",
                "cell_id": "131078",
                "MCC": "505",
                "MNC": "01",
                "PCI": "6",
                "TAC": "7",
                "RSPR": "-98",
                "time": 1649151845150,
                "registered?": "1"
            }
        ],
        "m37": [
            {
                "technology": "LTE",
                "cell_id": "131078",
                "MCC": "505",
                "MNC": "01",
                "PCI": "6",
                "TAC": "7",
                "RSPR": "-91",
                "time": 1649151846183,
                "registered?": "1"
            }
        ],
        "m38": [
            {
                "technology": "LTE",
                "cell_id": "131078",
                "MCC": "505",
                "MNC": "01",
                "PCI": "6",
                "TAC": "7",
                "RSPR": "-91",
                "time": 1649151847161,
                "registered?": "1"
            }
        ],
        "m39": [
            {
                "technology": "LTE",
                "cell_id": "131078",
                "MCC": "505",
                "MNC": "01",
                "PCI": "6",
                "TAC": "7",
                "RSPR": "-95",
                "time": 1649151848183,
                "registered?": "1"
            }
        ],
        "m40": [
            {
                "technology": "LTE",
                "cell_id": "131078",
                "MCC": "505",
                "MNC": "01",
                "PCI": "6",
                "TAC": "7",
                "RSPR": "-95",
                "time": 1649151849158,
                "registered?": "1"
            }
        ],
        "m41": [
            {
                "technology": "LTE",
                "cell_id": "131078",
                "MCC": "505",
                "MNC": "01",
                "PCI": "6",
                "TAC": "7",
                "RSPR": "-95",
                "time": 1649151850156,
                "registered?": "1"
            }
        ],
        "m42": [
            {
                "technology": "LTE",
                "cell_id": "131078",
                "MCC": "505",
                "MNC": "01",
                "PCI": "6",
                "TAC": "7",
                "RSPR": "-94",
                "time": 1649151851158,
                "registered?": "1"
            }
        ],
        "m43": [
            {
                "technology": "LTE",
                "cell_id": "131078",
                "MCC": "505",
                "MNC": "01",
                "PCI": "6",
                "TAC": "7",
                "RSPR": "-94",
                "time": 1649151852157,
                "registered?": "1"
            }
        ],
        "m44": [
            {
                "technology": "LTE",
                "cell_id": "131078",
                "MCC": "505",
                "MNC": "01",
                "PCI": "6",
                "TAC": "7",
                "RSPR": "-95",
                "time": 1649151853179,
                "registered?": "1"
            }
        ],
        "m45": [
            {
                "technology": "LTE",
                "cell_id": "131078",
                "MCC": "505",
                "MNC": "01",
                "PCI": "6",
                "TAC": "7",
                "RSPR": "-95",
                "time": 1649151854157,
                "registered?": "1"
            }
        ],
        "m46": [
            {
                "technology": "LTE",
                "cell_id": "131078",
                "MCC": "505",
                "MNC": "01",
                "PCI": "6",
                "TAC": "7",
                "RSPR": "-96",
                "time": 1649151855173,
                "registered?": "1"
            }
        ],
        "m47": [
            {
                "technology": "LTE",
                "cell_id": "131078",
                "MCC": "505",
                "MNC": "01",
                "PCI": "6",
                "TAC": "7",
                "RSPR": "-96",
                "time": 1649151856152,
                "registered?": "1"
            }
        ],
        "m48": [
            {
                "technology": "LTE",
                "cell_id": "131078",
                "MCC": "505",
                "MNC": "01",
                "PCI": "6",
                "TAC": "7",
                "RSPR": "-96",
                "time": 1649151857160,
                "registered?": "1"
            }
        ],
        "m49": [
            {
                "technology": "LTE",
                "cell_id": "131078",
                "MCC": "505",
                "MNC": "01",
                "PCI": "6",
                "TAC": "7",
                "RSPR": "-97",
                "time": 1649151858193,
                "registered?": "1"
            }
        ],
        "m50": [
            {
                "technology": "LTE",
                "cell_id": "131078",
                "MCC": "505",
                "MNC": "01",
                "PCI": "6",
                "TAC": "7",
                "RSPR": "-97",
                "time": 1649151859157,
                "registered?": "1"
            }
        ],
        "m51": [
            {
                "technology": "LTE",
                "cell_id": "131078",
                "MCC": "505",
                "MNC": "01",
                "PCI": "6",
                "TAC": "7",
                "RSPR": "-95",
                "time": 1649151860181,
                "registered?": "1"
            }
        ],
        "m52": [
            {
                "technology": "LTE",
                "cell_id": "131078",
                "MCC": "505",
                "MNC": "01",
                "PCI": "6",
                "TAC": "7",
                "RSPR": "-95",
                "time": 1649151861155,
                "registered?": "1"
            }
        ],
        "m53": [
            {
                "technology": "LTE",
                "cell_id": "131078",
                "MCC": "505",
                "MNC": "01",
                "PCI": "6",
                "TAC": "7",
                "RSPR": "-95",
                "time": 1649151862151,
                "registered?": "1"
            }
        ],
        "m54": [
            {
                "technology": "LTE",
                "cell_id": "131078",
                "MCC": "505",
                "MNC": "01",
                "PCI": "6",
                "TAC": "7",
                "RSPR": "-95",
                "time": 1649151863183,
                "registered?": "1"
            }
        ],
        "m55": [
            {
                "technology": "LTE",
                "cell_id": "131078",
                "MCC": "505",
                "MNC": "01",
                "PCI": "6",
                "TAC": "7",
                "RSPR": "-95",
                "time": 1649151864162,
                "registered?": "1"
            }
        ],
        "m56": [
            {
                "technology": "LTE",
                "cell_id": "131078",
                "MCC": "505",
                "MNC": "01",
                "PCI": "6",
                "TAC": "7",
                "RSPR": "-96",
                "time": 1649151865179,
                "registered?": "1"
            }
        ],
        "m57": [
            {
                "technology": "LTE",
                "cell_id": "131078",
                "MCC": "505",
                "MNC": "01",
                "PCI": "6",
                "TAC": "7",
                "RSPR": "-96",
                "time": 1649151866161,
                "registered?": "1"
            }
        ],
        "m58": [
            {
                "technology": "LTE",
                "cell_id": "131078",
                "MCC": "505",
                "MNC": "01",
                "PCI": "6",
                "TAC": "7",
                "RSPR": "-96",
                "time": 1649151867176,
                "registered?": "1"
            }
        ],
        "m59": [
            {
                "technology": "LTE",
                "cell_id": "131078",
                "MCC": "505",
                "MNC": "01",
                "PCI": "6",
                "TAC": "7",
                "RSPR": "-96",
                "time": 1649151868151,
                "registered?": "1"
            }
        ],
        "m60": [
            {
                "technology": "LTE",
                "cell_id": "131078",
                "MCC": "505",
                "MNC": "01",
                "PCI": "6",
                "TAC": "7",
                "RSPR": "-94",
                "time": 1649151869179,
                "registered?": "1"
            }
        ],
        "m61": [
            {
                "technology": "LTE",
                "cell_id": "131078",
                "MCC": "505",
                "MNC": "01",
                "PCI": "6",
                "TAC": "7",
                "RSPR": "-94",
                "time": 1649151870160,
                "registered?": "1"
            }
        ],
        "m62": [
            {
                "technology": "LTE",
                "cell_id": "131078",
                "MCC": "505",
                "MNC": "01",
                "PCI": "6",
                "TAC": "7",
                "RSPR": "-94",
                "time": 1649151871180,
                "registered?": "1"
            }
        ],
        "m63": [
            {
                "technology": "LTE",
                "cell_id": "131078",
                "MCC": "505",
                "MNC": "01",
                "PCI": "6",
                "TAC": "7",
                "RSPR": "-94",
                "time": 1649151872162,
                "registered?": "1"
            }
        ],
        "m64": [
            {
                "technology": "LTE",
                "cell_id": "131078",
                "MCC": "505",
                "MNC": "01",
                "PCI": "6",
                "TAC": "7",
                "RSPR": "-94",
                "time": 1649151873151,
                "registered?": "1"
            }
        ],
        "m65": [
            {
                "technology": "LTE",
                "cell_id": "131078",
                "MCC": "505",
                "MNC": "01",
                "PCI": "6",
                "TAC": "7",
                "RSPR": "-97",
                "time": 1649151874170,
                "registered?": "1"
            }
        ],
        "m66": [
            {
                "technology": "LTE",
                "cell_id": "131078",
                "MCC": "505",
                "MNC": "01",
                "PCI": "6",
                "TAC": "7",
                "RSPR": "-97",
                "time": 1649151875161,
                "registered?": "1"
            }
        ],
        "m67": [
            {
                "technology": "LTE",
                "cell_id": "131078",
                "MCC": "505",
                "MNC": "01",
                "PCI": "6",
                "TAC": "7",
                "RSPR": "-96",
                "time": 1649151876179,
                "registered?": "1"
            }
        ],
        "m68": [
            {
                "technology": "LTE",
                "cell_id": "131078",
                "MCC": "505",
                "MNC": "01",
                "PCI": "6",
                "TAC": "7",
                "RSPR": "-96",
                "time": 1649151877158,
                "registered?": "1"
            }
        ],
        "m69": [
            {
                "technology": "LTE",
                "cell_id": "131078",
                "MCC": "505",
                "MNC": "01",
                "PCI": "6",
                "TAC": "7",
                "RSPR": "-99",
                "time": 1649151878170,
                "registered?": "1"
            }
        ],
        "m70": [
            {
                "technology": "LTE",
                "cell_id": "131078",
                "MCC": "505",
                "MNC": "01",
                "PCI": "6",
                "TAC": "7",
                "RSPR": "-99",
                "time": 1649151879151,
                "registered?": "1"
            }
        ],
        "m71": [
            {
                "technology": "LTE",
                "cell_id": "131078",
                "MCC": "505",
                "MNC": "01",
                "PCI": "6",
                "TAC": "7",
                "RSPR": "-98",
                "time": 1649151880169,
                "registered?": "1"
            }
        ],
        "m72": [
            {
                "technology": "LTE",
                "cell_id": "131078",
                "MCC": "505",
                "MNC": "01",
                "PCI": "6",
                "TAC": "7",
                "RSPR": "-98",
                "time": 1649151881155,
                "registered?": "1"
            }
        ],
        "m73": [
            {
                "technology": "LTE",
                "cell_id": "131078",
                "MCC": "505",
                "MNC": "01",
                "PCI": "6",
                "TAC": "7",
                "RSPR": "-98",
                "time": 1649151882155,
                "registered?": "1"
            }
        ],
        "m74": [
            {
                "technology": "LTE",
                "cell_id": "131078",
                "MCC": "505",
                "MNC": "01",
                "PCI": "6",
                "TAC": "7",
                "RSPR": "-98",
                "time": 1649151883179,
                "registered?": "1"
            }
        ],
        "m75": [
            {
                "technology": "LTE",
                "cell_id": "131078",
                "MCC": "505",
                "MNC": "01",
                "PCI": "6",
                "TAC": "7",
                "RSPR": "-98",
                "time": 1649151884154,
                "registered?": "1"
            }
        ],
        "m76": [
            {
                "technology": "LTE",
                "cell_id": "131078",
                "MCC": "505",
                "MNC": "01",
                "PCI": "6",
                "TAC": "7",
                "RSPR": "-98",
                "time": 1649151885151,
                "registered?": "1"
            }
        ],
        "m77": [
            {
                "technology": "LTE",
                "cell_id": "131078",
                "MCC": "505",
                "MNC": "01",
                "PCI": "6",
                "TAC": "7",
                "RSPR": "-93",
                "time": 1649151886182,
                "registered?": "1"
            }
        ],
        "m78": [
            {
                "technology": "LTE",
                "cell_id": "131078",
                "MCC": "505",
                "MNC": "01",
                "PCI": "6",
                "TAC": "7",
                "RSPR": "-93",
                "time": 1649151887160,
                "registered?": "1"
            }
        ],
        "m79": [
            {
                "technology": "LTE",
                "cell_id": "131078",
                "MCC": "505",
                "MNC": "01",
                "PCI": "6",
                "TAC": "7",
                "RSPR": "-93",
                "time": 1649151888159,
                "registered?": "1"
            }
        ],
        "m80": [
            {
                "technology": "LTE",
                "cell_id": "131078",
                "MCC": "505",
                "MNC": "01",
                "PCI": "6",
                "TAC": "7",
                "RSPR": "-92",
                "time": 1649151889184,
                "registered?": "1"
            }
        ],
        "m81": [
            {
                "technology": "LTE",
                "cell_id": "131078",
                "MCC": "505",
                "MNC": "01",
                "PCI": "6",
                "TAC": "7",
                "RSPR": "-92",
                "time": 1649151890155,
                "registered?": "1"
            }
        ],
        "m82": [
            {
                "technology": "LTE",
                "cell_id": "131078",
                "MCC": "505",
                "MNC": "01",
                "PCI": "6",
                "TAC": "7",
                "RSPR": "-92",
                "time": 1649151891151,
                "registered?": "1"
            }
        ],
        "m83": [
            {
                "technology": "LTE",
                "cell_id": "131078",
                "MCC": "505",
                "MNC": "01",
                "PCI": "6",
                "TAC": "7",
                "RSPR": "-94",
                "time": 1649151892169,
                "registered?": "1"
            }
        ],
        "m84": [
            {
                "technology": "LTE",
                "cell_id": "131078",
                "MCC": "505",
                "MNC": "01",
                "PCI": "6",
                "TAC": "7",
                "RSPR": "-94",
                "time": 1649151893160,
                "registered?": "1"
            }
        ],
        "m85": [
            {
                "technology": "LTE",
                "cell_id": "131078",
                "MCC": "505",
                "MNC": "01",
                "PCI": "6",
                "TAC": "7",
                "RSPR": "-98",
                "time": 1649151894186,
                "registered?": "1"
            }
        ],
        "m86": [
            {
                "technology": "LTE",
                "cell_id": "131078",
                "MCC": "505",
                "MNC": "01",
                "PCI": "6",
                "TAC": "7",
                "RSPR": "-98",
                "time": 1649151895159,
                "registered?": "1"
            }
        ],
        "m87": [
            {
                "technology": "LTE",
                "cell_id": "131078",
                "MCC": "505",
                "MNC": "01",
                "PCI": "6",
                "TAC": "7",
                "RSPR": "-98",
                "time": 1649151896159,
                "registered?": "1"
            }
        ],
        "m88": [
            {
                "technology": "LTE",
                "cell_id": "131078",
                "MCC": "505",
                "MNC": "01",
                "PCI": "6",
                "TAC": "7",
                "RSPR": "-100",
                "time": 1649151897157,
                "registered?": "1"
            }
        ],
        "m89": [
            {
                "technology": "LTE",
                "cell_id": "131078",
                "MCC": "505",
                "MNC": "01",
                "PCI": "6",
                "TAC": "7",
                "RSPR": "-100",
                "time": 1649151898159,
                "registered?": "1"
            }
        ],
        "m90": [
            {
                "technology": "LTE",
                "cell_id": "131078",
                "MCC": "505",
                "MNC": "01",
                "PCI": "6",
                "TAC": "7",
                "RSPR": "-97",
                "time": 1649151899182,
                "registered?": "1"
            }
        ],
        "m91": [
            {
                "technology": "LTE",
                "cell_id": "131078",
                "MCC": "505",
                "MNC": "01",
                "PCI": "6",
                "TAC": "7",
                "RSPR": "-97",
                "time": 1649151900161,
                "registered?": "1"
            }
        ],
        "m92": [
            {
                "technology": "LTE",
                "cell_id": "131078",
                "MCC": "505",
                "MNC": "01",
                "PCI": "6",
                "TAC": "7",
                "RSPR": "-97",
                "time": 1649151901160,
                "registered?": "1"
            }
        ],
        "m93": [
            {
                "technology": "LTE",
                "cell_id": "131078",
                "MCC": "505",
                "MNC": "01",
                "PCI": "6",
                "TAC": "7",
                "RSPR": "-96",
                "time": 1649151902180,
                "registered?": "1"
            }
        ],
        "m94": [
            {
                "technology": "LTE",
                "cell_id": "131078",
                "MCC": "505",
                "MNC": "01",
                "PCI": "6",
                "TAC": "7",
                "RSPR": "-96",
                "time": 1649151903151,
                "registered?": "1"
            }
        ],
        "m95": [
            {
                "technology": "LTE",
                "cell_id": "131078",
                "MCC": "505",
                "MNC": "01",
                "PCI": "6",
                "TAC": "7",
                "RSPR": "-97",
                "time": 1649151904183,
                "registered?": "1"
            }
        ],
        "m96": [
            {
                "technology": "LTE",
                "cell_id": "131078",
                "MCC": "505",
                "MNC": "01",
                "PCI": "6",
                "TAC": "7",
                "RSPR": "-97",
                "time": 1649151905161,
                "registered?": "1"
            }
        ],
        "m97": [
            {
                "technology": "LTE",
                "cell_id": "131078",
                "MCC": "505",
                "MNC": "01",
                "PCI": "6",
                "TAC": "7",
                "RSPR": "-97",
                "time": 1649151906159,
                "registered?": "1"
            }
        ],
        "m98": [
            {
                "technology": "LTE",
                "cell_id": "131078",
                "MCC": "505",
                "MNC": "01",
                "PCI": "6",
                "TAC": "7",
                "RSPR": "-99",
                "time": 1649151907181,
                "registered?": "1"
            }
        ],
        "m99": [
            {
                "technology": "LTE",
                "cell_id": "131078",
                "MCC": "505",
                "MNC": "01",
                "PCI": "6",
                "TAC": "7",
                "RSPR": "-99",
                "time": 1649151908159,
                "registered?": "1"
            }
        ],
        "m100": [
            {
                "technology": "LTE",
                "cell_id": "131078",
                "MCC": "505",
                "MNC": "01",
                "PCI": "6",
                "TAC": "7",
                "RSPR": "-99",
                "time": 1649151909151,
                "registered?": "1"
            }
        ],
        "m101": [
            {
                "technology": "LTE",
                "cell_id": "131078",
                "MCC": "505",
                "MNC": "01",
                "PCI": "6",
                "TAC": "7",
                "RSPR": "-98",
                "time": 1649151910173,
                "registered?": "1"
            }
        ],
        "m102": [
            {
                "technology": "LTE",
                "cell_id": "131078",
                "MCC": "505",
                "MNC": "01",
                "PCI": "6",
                "TAC": "7",
                "RSPR": "-98",
                "time": 1649151911162,
                "registered?": "1"
            }
        ],
        "m103": [
            {
                "technology": "LTE",
                "cell_id": "131078",
                "MCC": "505",
                "MNC": "01",
                "PCI": "6",
                "TAC": "7",
                "RSPR": "-98",
                "time": 1649151912181,
                "registered?": "1"
            }
        ],
        "m104": [
            {
                "technology": "LTE",
                "cell_id": "131078",
                "MCC": "505",
                "MNC": "01",
                "PCI": "6",
                "TAC": "7",
                "RSPR": "-98",
                "time": 1649151913160,
                "registered?": "1"
            }
        ],
        "m105": [
            {
                "technology": "LTE",
                "cell_id": "131078",
                "MCC": "505",
                "MNC": "01",
                "PCI": "6",
                "TAC": "7",
                "RSPR": "-98",
                "time": 1649151914151,
                "registered?": "1"
            }
        ],
        "m106": [
            {
                "technology": "LTE",
                "cell_id": "131078",
                "MCC": "505",
                "MNC": "01",
                "PCI": "6",
                "TAC": "7",
                "RSPR": "-97",
                "time": 1649151915180,
                "registered?": "1"
            }
        ],
        "m107": [
            {
                "technology": "LTE",
                "cell_id": "131078",
                "MCC": "505",
                "MNC": "01",
                "PCI": "6",
                "TAC": "7",
                "RSPR": "-97",
                "time": 1649151916156,
                "registered?": "1"
            }
        ],
        "m108": [
            {
                "technology": "LTE",
                "cell_id": "131078",
                "MCC": "505",
                "MNC": "01",
                "PCI": "6",
                "TAC": "7",
                "RSPR": "-96",
                "time": 1649151917179,
                "registered?": "1"
            }
        ],
        "m109": [
            {
                "technology": "LTE",
                "cell_id": "131078",
                "MCC": "505",
                "MNC": "01",
                "PCI": "6",
                "TAC": "7",
                "RSPR": "-96",
                "time": 1649151918160,
                "registered?": "1"
            }
        ],
        "m110": [
            {
                "technology": "LTE",
                "cell_id": "131078",
                "MCC": "505",
                "MNC": "01",
                "PCI": "6",
                "TAC": "7",
                "RSPR": "-96",
                "time": 1649151919155,
                "registered?": "1"
            }
        ],
        "m111": [
            {
                "technology": "LTE",
                "cell_id": "131078",
                "MCC": "505",
                "MNC": "01",
                "PCI": "6",
                "TAC": "7",
                "RSPR": "-97",
                "time": 1649151920155,
                "registered?": "1"
            }
        ],
        "m112": [
            {
                "technology": "LTE",
                "cell_id": "131078",
                "MCC": "505",
                "MNC": "01",
                "PCI": "6",
                "TAC": "7",
                "RSPR": "-97",
                "time": 1649151921159,
                "registered?": "1"
            }
        ],
        "m113": [
            {
                "technology": "LTE",
                "cell_id": "131078",
                "MCC": "505",
                "MNC": "01",
                "PCI": "6",
                "TAC": "7",
                "RSPR": "-92",
                "time": 1649151922187,
                "registered?": "1"
            }
        ],
        "m114": [
            {
                "technology": "LTE",
                "cell_id": "131078",
                "MCC": "505",
                "MNC": "01",
                "PCI": "6",
                "TAC": "7",
                "RSPR": "-92",
                "time": 1649151923161,
                "registered?": "1"
            }
        ],
        "m115": [
            {
                "technology": "LTE",
                "cell_id": "131078",
                "MCC": "505",
                "MNC": "01",
                "PCI": "6",
                "TAC": "7",
                "RSPR": "-92",
                "time": 1649151924162,
                "registered?": "1"
            }
        ],
        "m116": [
            {
                "technology": "LTE",
                "cell_id": "131078",
                "MCC": "505",
                "MNC": "01",
                "PCI": "6",
                "TAC": "7",
                "RSPR": "-96",
                "time": 1649151925181,
                "registered?": "1"
            }
        ],
        "m117": [
            {
                "technology": "LTE",
                "cell_id": "131078",
                "MCC": "505",
                "MNC": "01",
                "PCI": "6",
                "TAC": "7",
                "RSPR": "-96",
                "time": 1649151926151,
                "registered?": "1"
            }
        ],
        "m118": [
            {
                "technology": "LTE",
                "cell_id": "131078",
                "MCC": "505",
                "MNC": "01",
                "PCI": "6",
                "TAC": "7",
                "RSPR": "-99",
                "time": 1649151927183,
                "registered?": "1"
            }
        ],
        "m119": [
            {
                "technology": "LTE",
                "cell_id": "131078",
                "MCC": "505",
                "MNC": "01",
                "PCI": "6",
                "TAC": "7",
                "RSPR": "-99",
                "time": 1649151928161,
                "registered?": "1"
            }
        ],
        "m120": [
            {
                "technology": "LTE",
                "cell_id": "131078",
                "MCC": "505",
                "MNC": "01",
                "PCI": "6",
                "TAC": "7",
                "RSPR": "-99",
                "time": 1649151929154,
                "registered?": "1"
            }
        ],
        "m121": [
            {
                "technology": "LTE",
                "cell_id": "131078",
                "MCC": "505",
                "MNC": "01",
                "PCI": "6",
                "TAC": "7",
                "RSPR": "-100",
                "time": 1649151930188,
                "registered?": "1"
            }
        ],
        "m122": [
            {
                "technology": "LTE",
                "cell_id": "131078",
                "MCC": "505",
                "MNC": "01",
                "PCI": "6",
                "TAC": "7",
                "RSPR": "-100",
                "time": 1649151931162,
                "registered?": "1"
            }
        ],
        "m123": [
            {
                "technology": "LTE",
                "cell_id": "131078",
                "MCC": "505",
                "MNC": "01",
                "PCI": "6",
                "TAC": "7",
                "RSPR": "-100",
                "time": 1649151932152,
                "registered?": "1"
            }
        ],
        "m124": [
            {
                "technology": "LTE",
                "cell_id": "131078",
                "MCC": "505",
                "MNC": "01",
                "PCI": "6",
                "TAC": "7",
                "RSPR": "-94",
                "time": 1649151933192,
                "registered?": "1"
            }
        ],
        "m125": [
            {
                "technology": "LTE",
                "cell_id": "131078",
                "MCC": "505",
                "MNC": "01",
                "PCI": "6",
                "TAC": "7",
                "RSPR": "-94",
                "time": 1649151934168,
                "registered?": "1"
            }
        ]
    }
}