{
    "measurements": {
        "m0": [
            {
                "technology": "LTE",
                "cell_id": "131078",
                "MCC": "505",
                "MNC": "01",
                "PCI": "6",
                "TAC": "7",
                "RSPR": "-112",
                "time": 1649149637548,
                "registered?": "1"
            }
        ],
        "m1": [
            {
                "technology": "LTE",
                "cell_id": "131078",
                "MCC": "505",
                "MNC": "01",
                "PCI": "6",
                "TAC": "7",
                "RSPR": "-112",
                "time": 1649149638533,
                "registered?": "1"
            }
        ],
        "m2": [
            {
                "technology": "LTE",
                "cell_id": "131078",
                "MCC": "505",
                "MNC": "01",
                "PCI": "6",
                "TAC": "7",
                "RSPR": "-112",
                "time": 1649149639529,
                "registered?": "1"
            }
        ],
        "m3": [
            {
                "technology": "LTE",
                "cell_id": "131078",
                "MCC": "505",
                "MNC": "01",
                "PCI": "6",
                "TAC": "7",
                "RSPR": "-103",
                "time": 1649149640554,
                "registered?": "1"
            }
        ],
        "m4": [
            {
                "technology": "LTE",
                "cell_id": "131078",
                "MCC": "505",
                "MNC": "01",
                "PCI": "6",
                "TAC": "7",
                "RSPR": "-103",
                "time": 1649149641531,
                "registered?": "1"
            }
        ],
        "m5": [
            {
                "technology": "LTE",
                "cell_id": "131078",
                "MCC": "505",
                "MNC": "01",
                "PCI": "6",
                "TAC": "7",
                "RSPR": "-101",
                "time": 1649149642556,
                "registered?": "1"
            }
        ],
        "m6": [
            {
                "technology": "LTE",
                "cell_id": "131078",
                "MCC": "505",
                "MNC": "01",
                "PCI": "6",
                "TAC": "7",
                "RSPR": "-101",
                "time": 1649149643532,
                "registered?": "1"
            }
        ],
        "m7": [
            {
                "technology": "LTE",
                "cell_id": "131078",
                "MCC": "505",
                "MNC": "01",
                "PCI": "6",
                "TAC": "7",
                "RSPR": "-102",
                "time": 1649149644555,
                "registered?": "1"
            }
        ],
        "m8": [
            {
                "technology": "LTE",
                "cell_id": "131078",
                "MCC": "505",
                "MNC": "01",
                "PCI": "6",
                "TAC": "7",
                "RSPR": "-102",
                "time": 1649149645532,
                "registered?": "1"
            }
        ],
        "m9": [
            {
                "technology": "LTE",
                "cell_id": "131078",
                "MCC": "505",
                "MNC": "01",
                "PCI": "6",
                "TAC": "7",
                "RSPR": "-100",
                "time": 1649149646563,
                "registered?": "1"
            }
        ],
        "m10": [
            {
                "technology": "LTE",
                "cell_id": "131078",
                "MCC": "505",
                "MNC": "01",
                "PCI": "6",
                "TAC": "7",
                "RSPR": "-100",
                "time": 1649149647533,
                "registered?": "1"
            }
        ],
        "m11": [
            {
                "technology": "LTE",
                "cell_id": "131078",
                "MCC": "505",
                "MNC": "01",
                "PCI": "6",
                "TAC": "7",
                "RSPR": "-100",
                "time": 1649149648531,
                "registered?": "1"
            }
        ],
        "m12": [
            {
                "technology": "LTE",
                "cell_id": "131078",
                "MCC": "505",
                "MNC": "01",
                "PCI": "6",
                "TAC": "7",
                "RSPR": "-100",
                "time": 1649149649559,
                "registered?": "1"
            }
        ],
        "m13": [
            {
                "technology": "LTE",
                "cell_id": "131078",
                "MCC": "505",
                "MNC": "01",
                "PCI": "6",
                "TAC": "7",
                "RSPR": "-100",
                "time": 1649149650533,
                "registered?": "1"
            }
        ],
        "m14": [
            {
                "technology": "LTE",
                "cell_id": "131078",
                "MCC": "505",
                "MNC": "01",
                "PCI": "6",
                "TAC": "7",
                "RSPR": "-100",
                "time": 1649149651556,
                "registered?": "1"
            }
        ],
        "m15": [
            {
                "technology": "LTE",
                "cell_id": "131078",
                "MCC": "505",
                "MNC": "01",
                "PCI": "6",
                "TAC": "7",
                "RSPR": "-100",
                "time": 1649149652531,
                "registered?": "1"
            }
        ],
        "m16": [
            {
                "technology": "LTE",
                "cell_id": "131078",
                "MCC": "505",
                "MNC": "01",
                "PCI": "6",
                "TAC": "7",
                "RSPR": "-99",
                "time": 1649149653555,
                "registered?": "1"
            }
        ],
        "m17": [
            {
                "technology": "LTE",
                "cell_id": "131078",
                "MCC": "505",
                "MNC": "01",
                "PCI": "6",
                "TAC": "7",
                "RSPR": "-99",
                "time": 1649149654532,
                "registered?": "1"
            }
        ],
        "m18": [
            {
                "technology": "LTE",
                "cell_id": "131078",
                "MCC": "505",
                "MNC": "01",
                "PCI": "6",
                "TAC": "7",
                "RSPR": "-99",
                "time": 1649149655530,
                "registered?": "1"
            }
        ],
        "m19": [
            {
                "technology": "LTE",
                "cell_id": "131078",
                "MCC": "505",
                "MNC": "01",
                "PCI": "6",
                "TAC": "7",
                "RSPR": "-99",
                "time": 1649149656561,
                "registered?": "1"
            }
        ],
        "m20": [
            {
                "technology": "LTE",
                "cell_id": "131078",
                "MCC": "505",
                "MNC": "01",
                "PCI": "6",
                "TAC": "7",
                "RSPR": "-99",
                "time": 1649149657532,
                "registered?": "1"
            }
        ],
        "m21": [
            {
                "technology": "LTE",
                "cell_id": "131078",
                "MCC": "505",
                "MNC": "01",
                "PCI": "6",
                "TAC": "7",
                "RSPR": "-99",
                "time": 1649149658558,
                "registered?": "1"
            }
        ],
        "m22": [
            {
                "technology": "LTE",
                "cell_id": "131078",
                "MCC": "505",
                "MNC": "01",
                "PCI": "6",
                "TAC": "7",
                "RSPR": "-99",
                "time": 1649149659531,
                "registered?": "1"
            }
        ],
        "m23": [
            {
                "technology": "LTE",
                "cell_id": "131078",
                "MCC": "505",
                "MNC": "01",
                "PCI": "6",
                "TAC": "7",
                "RSPR": "-99",
                "time": 1649149660531,
                "registered?": "1"
            }
        ],
        "m24": [
            {
                "technology": "LTE",
                "cell_id": "131078",
                "MCC": "505",
                "MNC": "01",
                "PCI": "6",
                "TAC": "7",
                "RSPR": "-99",
                "time": 1649149661557,
                "registered?": "1"
            }
        ],
        "m25": [
            {
                "technology": "LTE",
                "cell_id": "131078",
                "MCC": "505",
                "MNC": "01",
                "PCI": "6",
                "TAC": "7",
                "RSPR": "-99",
                "time": 1649149662531,
                "registered?": "1"
            }
        ],
        "m26": [
            {
                "technology": "LTE",
                "cell_id": "131078",
                "MCC": "505",
                "MNC": "01",
                "PCI": "6",
                "TAC": "7",
                "RSPR": "-99",
                "time": 1649149663531,
                "registered?": "1"
            }
        ],
        "m27": [
            {
                "technology": "LTE",
                "cell_id": "131078",
                "MCC": "505",
                "MNC": "01",
                "PCI": "6",
                "TAC": "7",
                "RSPR": "-99",
                "time": 1649149664557,
                "registered?": "1"
            }
        ],
        "m28": [
            {
                "technology": "LTE",
                "cell_id": "131078",
                "MCC": "505",
                "MNC": "01",
                "PCI": "6",
                "TAC": "7",
                "RSPR": "-99",
                "time": 1649149665543,
                "registered?": "1"
            }
        ],
        "m29": [
            {
                "technology": "LTE",
                "cell_id": "131078",
                "MCC": "505",
                "MNC": "01",
                "PCI": "6",
                "TAC": "7",
                "RSPR": "-99",
                "time": 1649149666564,
                "registered?": "1"
            }
        ],
        "m30": [
            {
                "technology": "LTE",
                "cell_id": "131078",
                "MCC": "505",
                "MNC": "01",
                "PCI": "6",
                "TAC": "7",
                "RSPR": "-99",
                "time": 1649149667531,
                "registered?": "1"
            }
        ],
        "m31": [
            {
                "technology": "LTE",
                "cell_id": "131078",
                "MCC": "505",
                "MNC": "01",
                "PCI": "6",
                "TAC": "7",
                "RSPR": "-99",
                "time": 1649149668528,
                "registered?": "1"
            }
        ],
        "m32": [
            {
                "technology": "LTE",
                "cell_id": "131078",
                "MCC": "505",
                "MNC": "01",
                "PCI": "6",
                "TAC": "7",
                "RSPR": "-99",
                "time": 1649149669552,
                "registered?": "1"
            }
        ],
        "m33": [
            {
                "technology": "LTE",
                "cell_id": "131078",
                "MCC": "505",
                "MNC": "01",
                "PCI": "6",
                "TAC": "7",
                "RSPR": "-99",
                "time": 1649149670531,
                "registered?": "1"
            }
        ],
        "m34": [
            {
                "technology": "LTE",
                "cell_id": "131078",
                "MCC": "505",
                "MNC": "01",
                "PCI": "6",
                "TAC": "7",
                "RSPR": "-99",
                "time": 1649149671559,
                "registered?": "1"
            }
        ],
        "m35": [
            {
                "technology": "LTE",
                "cell_id": "131078",
                "MCC": "505",
                "MNC": "01",
                "PCI": "6",
                "TAC": "7",
                "RSPR": "-99",
                "time": 1649149672531,
                "registered?": "1"
            }
        ],
        "m36": [
            {
                "technology": "LTE",
                "cell_id": "131078",
                "MCC": "505",
                "MNC": "01",
                "PCI": "6",
                "TAC": "7",
                "RSPR": "-99",
                "time": 1649149673531,
                "registered?": "1"
            }
        ],
        "m37": [
            {
                "technology": "LTE",
                "cell_id": "131078",
                "MCC": "505",
                "MNC": "01",
                "PCI": "6",
                "TAC": "7",
                "RSPR": "-99",
                "time": 1649149674559,
                "registered?": "1"
            }
        ],
        "m38": [
            {
                "technology": "LTE",
                "cell_id": "131078",
                "MCC": "505",
                "MNC": "01",
                "PCI": "6",
                "TAC": "7",
                "RSPR": "-99",
                "time": 1649149675531,
                "registered?": "1"
            }
        ],
        "m39": [
            {
                "technology": "LTE",
                "cell_id": "131078",
                "MCC": "505",
                "MNC": "01",
                "PCI": "6",
                "TAC": "7",
                "RSPR": "-99",
                "time": 1649149676531,
                "registered?": "1"
            }
        ],
        "m40": [
            {
                "technology": "LTE",
                "cell_id": "131078",
                "MCC": "505",
                "MNC": "01",
                "PCI": "6",
                "TAC": "7",
                "RSPR": "-99",
                "time": 1649149677552,
                "registered?": "1"
            }
        ],
        "m41": [
            {
                "technology": "LTE",
                "cell_id": "131078",
                "MCC": "505",
                "MNC": "01",
                "PCI": "6",
                "TAC": "7",
                "RSPR": "-99",
                "time": 1649149678532,
                "registered?": "1"
            }
        ],
        "m42": [
            {
                "technology": "LTE",
                "cell_id": "131078",
                "MCC": "505",
                "MNC": "01",
                "PCI": "6",
                "TAC": "7",
                "RSPR": "-99",
                "time": 1649149679555,
                "registered?": "1"
            }
        ],
        "m43": [
            {
                "technology": "LTE",
                "cell_id": "131078",
                "MCC": "505",
                "MNC": "01",
                "PCI": "6",
                "TAC": "7",
                "RSPR": "-99",
                "time": 1649149680531,
                "registered?": "1"
            }
        ],
        "m44": [
            {
                "technology": "LTE",
                "cell_id": "131078",
                "MCC": "505",
                "MNC": "01",
                "PCI": "6",
                "TAC": "7",
                "RSPR": "-99",
                "time": 1649149681532,
                "registered?": "1"
            }
        ],
        "m45": [
            {
                "technology": "LTE",
                "cell_id": "131078",
                "MCC": "505",
                "MNC": "01",
                "PCI": "6",
                "TAC": "7",
                "RSPR": "-100",
                "time": 1649149682554,
                "registered?": "1"
            }
        ],
        "m46": [
            {
                "technology": "LTE",
                "cell_id": "131078",
                "MCC": "505",
                "MNC": "01",
                "PCI": "6",
                "TAC": "7",
                "RSPR": "-100",
                "time": 1649149683531,
                "registered?": "1"
            }
        ],
        "m47": [
            {
                "technology": "LTE",
                "cell_id": "131078",
                "MCC": "505",
                "MNC": "01",
                "PCI": "6",
                "TAC": "7",
                "RSPR": "-100",
                "time": 1649149684529,
                "registered?": "1"
            }
        ],
        "m48": [
            {
                "technology": "LTE",
                "cell_id": "131078",
                "MCC": "505",
                "MNC": "01",
                "PCI": "6",
                "TAC": "7",
                "RSPR": "-115",
                "time": 1649149685552,
                "registered?": "1"
            }
        ],
        "m49": [
            {
                "technology": "LTE",
                "cell_id": "131078",
                "MCC": "505",
                "MNC": "01",
                "PCI": "6",
                "TAC": "7",
                "RSPR": "-115",
                "time": 1649149686527,
                "registered?": "1"
            }
        ],
        "m50": [
            {
                "technology": "LTE",
                "cell_id": "131078",
                "MCC": "505",
                "MNC": "01",
                "PCI": "6",
                "TAC": "7",
                "RSPR": "-115",
                "time": 1649149687529,
                "registered?": "1"
            }
        ],
        "m51": [
            {
                "technology": "LTE",
                "cell_id": "131078",
                "MCC": "505",
                "MNC": "01",
                "PCI": "6",
                "TAC": "7",
                "RSPR": "-105",
                "time": 1649149688547,
                "registered?": "1"
            }
        ],
        "m52": [
            {
                "technology": "LTE",
                "cell_id": "131078",
                "MCC": "505",
                "MNC": "01",
                "PCI": "6",
                "TAC": "7",
                "RSPR": "-105",
                "time": 1649149689531,
                "registered?": "1"
            }
        ],
        "m53": [
            {
                "technology": "LTE",
                "cell_id": "131078",
                "MCC": "505",
                "MNC": "01",
                "PCI": "6",
                "TAC": "7",
                "RSPR": "-105",
                "time": 1649149690558,
                "registered?": "1"
            }
        ],
        "m54": [
            {
                "technology": "LTE",
                "cell_id": "131078",
                "MCC": "505",
                "MNC": "01",
                "PCI": "6",
                "TAC": "7",
                "RSPR": "-105",
                "time": 1649149691533,
                "registered?": "1"
            }
        ],
        "m55": [
            {
                "technology": "LTE",
                "cell_id": "131078",
                "MCC": "505",
                "MNC": "01",
                "PCI": "6",
                "TAC": "7",
                "RSPR": "-104",
                "time": 1649149692553,
                "registered?": "1"
            }
        ],
        "m56": [
            {
                "technology": "LTE",
                "cell_id": "131078",
                "MCC": "505",
                "MNC": "01",
                "PCI": "6",
                "TAC": "7",
                "RSPR": "-104",
                "time": 1649149693532,
                "registered?": "1"
            }
        ],
        "m57": [
            {
                "technology": "LTE",
                "cell_id": "131078",
                "MCC": "505",
                "MNC": "01",
                "PCI": "6",
                "TAC": "7",
                "RSPR": "-102",
                "time": 1649149694553,
                "registered?": "1"
            }
        ],
        "m58": [
            {
                "technology": "LTE",
                "cell_id": "131078",
                "MCC": "505",
                "MNC": "01",
                "PCI": "6",
                "TAC": "7",
                "RSPR": "-102",
                "time": 1649149695532,
                "registered?": "1"
            }
        ],
        "m59": [
            {
                "technology": "LTE",
                "cell_id": "131078",
                "MCC": "505",
                "MNC": "01",
                "PCI": "6",
                "TAC": "7",
                "RSPR": "-102",
                "time": 1649149696531,
                "registered?": "1"
            }
        ],
        "m60": [
            {
                "technology": "LTE",
                "cell_id": "131078",
                "MCC": "505",
                "MNC": "01",
                "PCI": "6",
                "TAC": "7",
                "RSPR": "-102",
                "time": 1649149697554,
                "registered?": "1"
            }
        ],
        "m61": [
            {
                "technology": "LTE",
                "cell_id": "131078",
                "MCC": "505",
                "MNC": "01",
                "PCI": "6",
                "TAC": "7",
                "RSPR": "-102",
                "time": 1649149698533,
                "registered?": "1"
            }
        ],
        "m62": [
            {
                "technology": "LTE",
                "cell_id": "131078",
                "MCC": "505",
                "MNC": "01",
                "PCI": "6",
                "TAC": "7",
                "RSPR": "-102",
                "time": 1649149699554,
                "registered?": "1"
            }
        ],
        "m63": [
            {
                "technology": "LTE",
                "cell_id": "131078",
                "MCC": "505",
                "MNC": "01",
                "PCI": "6",
                "TAC": "7",
                "RSPR": "-102",
                "time": 1649149700531,
                "registered?": "1"
            }
        ],
        "m64": [
            {
                "technology": "LTE",
                "cell_id": "131078",
                "MCC": "505",
                "MNC": "01",
                "PCI": "6",
                "TAC": "7",
                "RSPR": "-102",
                "time": 1649149701555,
                "registered?": "1"
            }
        ],
        "m65": [
            {
                "technology": "LTE",
                "cell_id": "131078",
                "MCC": "505",
                "MNC": "01",
                "PCI": "6",
                "TAC": "7",
                "RSPR": "-102",
                "time": 1649149702531,
                "registered?": "1"
            }
        ],
        "m66": [
            {
                "technology": "LTE",
                "cell_id": "131078",
                "MCC": "505",
                "MNC": "01",
                "PCI": "6",
                "TAC": "7",
                "RSPR": "-102",
                "time": 1649149703532,
                "registered?": "1"
            }
        ],
        "m67": [
            {
                "technology": "LTE",
                "cell_id": "131078",
                "MCC": "505",
                "MNC": "01",
                "PCI": "6",
                "TAC": "7",
                "RSPR": "-103",
                "time": 1649149704554,
                "registered?": "1"
            }
        ],
        "m68": [
            {
                "technology": "LTE",
                "cell_id": "131078",
                "MCC": "505",
                "MNC": "01",
                "PCI": "6",
                "TAC": "7",
                "RSPR": "-103",
                "time": 1649149705530,
                "registered?": "1"
            }
        ],
        "m69": [
            {
                "technology": "LTE",
                "cell_id": "131078",
                "MCC": "505",
                "MNC": "01",
                "PCI": "6",
                "TAC": "7",
                "RSPR": "-103",
                "time": 1649149706529,
                "registered?": "1"
            }
        ],
        "m70": [
            {
                "technology": "LTE",
                "cell_id": "131078",
                "MCC": "505",
                "MNC": "01",
                "PCI": "6",
                "TAC": "7",
                "RSPR": "-102",
                "time": 1649149707547,
                "registered?": "1"
            }
        ],
        "m71": [
            {
                "technology": "LTE",
                "cell_id": "131078",
                "MCC": "505",
                "MNC": "01",
                "PCI": "6",
                "TAC": "7",
                "RSPR": "-102",
                "time": 1649149708529,
                "registered?": "1"
            }
        ],
        "m72": [
            {
                "technology": "LTE",
                "cell_id": "131078",
                "MCC": "505",
                "MNC": "01",
                "PCI": "6",
                "TAC": "7",
                "RSPR": "-102",
                "time": 1649149709529,
                "registered?": "1"
            }
        ],
        "m73": [
            {
                "technology": "LTE",
                "cell_id": "131078",
                "MCC": "505",
                "MNC": "01",
                "PCI": "6",
                "TAC": "7",
                "RSPR": "-102",
                "time": 1649149710549,
                "registered?": "1"
            }
        ],
        "m74": [
            {
                "technology": "LTE",
                "cell_id": "131078",
                "MCC": "505",
                "MNC": "01",
                "PCI": "6",
                "TAC": "7",
                "RSPR": "-102",
                "time": 1649149711529,
                "registered?": "1"
            }
        ],
        "m75": [
            {
                "technology": "LTE",
                "cell_id": "131078",
                "MCC": "505",
                "MNC": "01",
                "PCI": "6",
                "TAC": "7",
                "RSPR": "-102",
                "time": 1649149712527,
                "registered?": "1"
            }
        ],
        "m76": [
            {
                "technology": "LTE",
                "cell_id": "131078",
                "MCC": "505",
                "MNC": "01",
                "PCI": "6",
                "TAC": "7",
                "RSPR": "-102",
                "time": 1649149713547,
                "registered?": "1"
            }
        ],
        "m77": [
            {
                "technology": "LTE",
                "cell_id": "131078",
                "MCC": "505",
                "MNC": "01",
                "PCI": "6",
                "TAC": "7",
                "RSPR": "-102",
                "time": 1649149714529,
                "registered?": "1"
            }
        ],
        "m78": [
            {
                "technology": "LTE",
                "cell_id": "131078",
                "MCC": "505",
                "MNC": "01",
                "PCI": "6",
                "TAC": "7",
                "RSPR": "-103",
                "time": 1649149715548,
                "registered?": "1"
            }
        ],
        "m79": [
            {
                "technology": "LTE",
                "cell_id": "131078",
                "MCC": "505",
                "MNC": "01",
                "PCI": "6",
                "TAC": "7",
                "RSPR": "-103",
                "time": 1649149716524,
                "registered?": "1"
            }
        ],
        "m80": [
            {
                "technology": "LTE",
                "cell_id": "131078",
                "MCC": "505",
                "MNC": "01",
                "PCI": "6",
                "TAC": "7",
                "RSPR": "-103",
                "time": 1649149717527,
                "registered?": "1"
            }
        ],
        "m81": [
            {
                "technology": "LTE",
                "cell_id": "131078",
                "MCC": "505",
                "MNC": "01",
                "PCI": "6",
                "TAC": "7",
                "RSPR": "-109",
                "time": 1649149718538,
                "registered?": "1"
            }
        ],
        "m82": [
            {
                "technology": "LTE",
                "cell_id": "131078",
                "MCC": "505",
                "MNC": "01",
                "PCI": "6",
                "TAC": "7",
                "RSPR": "-109",
                "time": 1649149719524,
                "registered?": "1"
            }
        ],
        "m83": [
            {
                "technology": "LTE",
                "cell_id": "131078",
                "MCC": "505",
                "MNC": "01",
                "PCI": "6",
                "TAC": "7",
                "RSPR": "-104",
                "time": 1649149720541,
                "registered?": "1"
            }
        ],
        "m84": [
            {
                "technology": "LTE",
                "cell_id": "131078",
                "MCC": "505",
                "MNC": "01",
                "PCI": "6",
                "TAC": "7",
                "RSPR": "-104",
                "time": 1649149721526,
                "registered?": "1"
            }
        ],
        "m85": [
            {
                "technology": "LTE",
                "cell_id": "131078",
                "MCC": "505",
                "MNC": "01",
                "PCI": "6",
                "TAC": "7",
                "RSPR": "-102",
                "time": 1649149722540,
                "registered?": "1"
            }
        ],
        "m86": [
            {
                "technology": "LTE",
                "cell_id": "131078",
                "MCC": "505",
                "MNC": "01",
                "PCI": "6",
                "TAC": "7",
                "RSPR": "-102",
                "time": 1649149723527,
                "registered?": "1"
            }
        ],
        "m87": [
            {
                "technology": "LTE",
                "cell_id": "131078",
                "MCC": "505",
                "MNC": "01",
                "PCI": "6",
                "TAC": "7",
                "RSPR": "-102",
                "time": 1649149724526,
                "registered?": "1"
            }
        ],
        "m88": [
            {
                "technology": "LTE",
                "cell_id": "131078",
                "MCC": "505",
                "MNC": "01",
                "PCI": "6",
                "TAC": "7",
                "RSPR": "-102",
                "time": 1649149725539,
                "registered?": "1"
            }
        ],
        "m89": [
            {
                "technology": "LTE",
                "cell_id": "131078",
                "MCC": "505",
                "MNC": "01",
                "PCI": "6",
                "TAC": "7",
                "RSPR": "-102",
                "time": 1649149726527,
                "registered?": "1"
            }
        ],
        "m90": [
            {
                "technology": "LTE",
                "cell_id": "131078",
                "MCC": "505",
                "MNC": "01",
                "PCI": "6",
                "TAC": "7",
                "RSPR": "-102",
                "time": 1649149727542,
                "registered?": "1"
            }
        ],
        "m91": [
            {
                "technology": "LTE",
                "cell_id": "131078",
                "MCC": "505",
                "MNC": "01",
                "PCI": "6",
                "TAC": "7",
                "RSPR": "-102",
                "time": 1649149728527,
                "registered?": "1"
            }
        ],
        "m92": [
            {
                "technology": "LTE",
                "cell_id": "131078",
                "MCC": "505",
                "MNC": "01",
                "PCI": "6",
                "TAC": "7",
                "RSPR": "-102",
                "time": 1649149729542,
                "registered?": "1"
            }
        ],
        "m93": [
            {
                "technology": "LTE",
                "cell_id": "131078",
                "MCC": "505",
                "MNC": "01",
                "PCI": "6",
                "TAC": "7",
                "RSPR": "-102",
                "time": 1649149730527,
                "registered?": "1"
            }
        ],
        "m94": [
            {
                "technology": "LTE",
                "cell_id": "131078",
                "MCC": "505",
                "MNC": "01",
                "PCI": "6",
                "TAC": "7",
                "RSPR": "-102",
                "time": 1649149731525,
                "registered?": "1"
            }
        ],
        "m95": [
            {
                "technology": "LTE",
                "cell_id": "131078",
                "MCC": "505",
                "MNC": "01",
                "PCI": "6",
                "TAC": "7",
                "RSPR": "-98",
                "time": 1649149732547,
                "registered?": "1"
            }
        ],
        "m96": [
            {
                "technology": "LTE",
                "cell_id": "131078",
                "MCC": "505",
                "MNC": "01",
                "PCI": "6",
                "TAC": "7",
                "RSPR": "-98",
                "time": 1649149733528,
                "registered?": "1"
            }
        ],
        "m97": [
            {
                "technology": "LTE",
                "cell_id": "131078",
                "MCC": "505",
                "MNC": "01",
                "PCI": "6",
                "TAC": "7",
                "RSPR": "-109",
                "time": 1649149734554,
                "registered?": "1"
            }
        ],
        "m98": [
            {
                "technology": "LTE",
                "cell_id": "131078",
                "MCC": "505",
                "MNC": "01",
                "PCI": "6",
                "TAC": "7",
                "RSPR": "-109",
                "time": 1649149735529,
                "registered?": "1"
            }
        ],
        "m99": [
            {
                "technology": "LTE",
                "cell_id": "131078",
                "MCC": "505",
                "MNC": "01",
                "PCI": "6",
                "TAC": "7",
                "RSPR": "-106",
                "time": 1649149736548,
                "registered?": "1"
            }
        ],
        "m100": [
            {
                "technology": "LTE",
                "cell_id": "131078",
                "MCC": "505",
                "MNC": "01",
                "PCI": "6",
                "TAC": "7",
                "RSPR": "-106",
                "time": 1649149737542,
                "registered?": "1"
            }
        ],
        "m101": [
            {
                "technology": "LTE",
                "cell_id": "131078",
                "MCC": "505",
                "MNC": "01",
                "PCI": "6",
                "TAC": "7",
                "RSPR": "-104",
                "time": 1649149738561,
                "registered?": "1"
            }
        ],
        "m102": [
            {
                "technology": "LTE",
                "cell_id": "131078",
                "MCC": "505",
                "MNC": "01",
                "PCI": "6",
                "TAC": "7",
                "RSPR": "-104",
                "time": 1649149739530,
                "registered?": "1"
            }
        ],
        "m103": [
            {
                "technology": "LTE",
                "cell_id": "131078",
                "MCC": "505",
                "MNC": "01",
                "PCI": "6",
                "TAC": "7",
                "RSPR": "-104",
                "time": 1649149740552,
                "registered?": "1"
            }
        ],
        "m104": [
            {
                "technology": "LTE",
                "cell_id": "131078",
                "MCC": "505",
                "MNC": "01",
                "PCI": "6",
                "TAC": "7",
                "RSPR": "-104",
                "time": 1649149741530,
                "registered?": "1"
            }
        ],
        "m105": [
            {
                "technology": "LTE",
                "cell_id": "131078",
                "MCC": "505",
                "MNC": "01",
                "PCI": "6",
                "TAC": "7",
                "RSPR": "-104",
                "time": 1649149742522,
                "registered?": "1"
            }
        ],
        "m106": [
            {
                "technology": "LTE",
                "cell_id": "131078",
                "MCC": "505",
                "MNC": "01",
                "PCI": "6",
                "TAC": "7",
                "RSPR": "-104",
                "time": 1649149743548,
                "registered?": "1"
            }
        ],
        "m107": [
            {
                "technology": "LTE",
                "cell_id": "131078",
                "MCC": "505",
                "MNC": "01",
                "PCI": "6",
                "TAC": "7",
                "RSPR": "-104",
                "time": 1649149744528,
                "registered?": "1"
            }
        ],
        "m108": [
            {
                "technology": "LTE",
                "cell_id": "131078",
                "MCC": "505",
                "MNC": "01",
                "PCI": "6",
                "TAC": "7",
                "RSPR": "-104",
                "time": 1649149745528,
                "registered?": "1"
            }
        ],
        "m109": [
            {
                "technology": "LTE",
                "cell_id": "131078",
                "MCC": "505",
                "MNC": "01",
                "PCI": "6",
                "TAC": "7",
                "RSPR": "-103",
                "time": 1649149746549,
                "registered?": "1"
            }
        ],
        "m110": [
            {
                "technology": "LTE",
                "cell_id": "131078",
                "MCC": "505",
                "MNC": "01",
                "PCI": "6",
                "TAC": "7",
                "RSPR": "-103",
                "time": 1649149747528,
                "registered?": "1"
            }
        ],
        "m111": [
            {
                "technology": "LTE",
                "cell_id": "131078",
                "MCC": "505",
                "MNC": "01",
                "PCI": "6",
                "TAC": "7",
                "RSPR": "-103",
                "time": 1649149748527,
                "registered?": "1"
            }
        ],
        "m112": [
            {
                "technology": "LTE",
                "cell_id": "131078",
                "MCC": "505",
                "MNC": "01",
                "PCI": "6",
                "TAC": "7",
                "RSPR": "-105",
                "time": 1649149749549,
                "registered?": "1"
            }
        ],
        "m113": [
            {
                "technology": "LTE",
                "cell_id": "131078",
                "MCC": "505",
                "MNC": "01",
                "PCI": "6",
                "TAC": "7",
                "RSPR": "-105",
                "time": 1649149750529,
                "registered?": "1"
            }
        ],
        "m114": [
            {
                "technology": "LTE",
                "cell_id": "131078",
                "MCC": "505",
                "MNC": "01",
                "PCI": "6",
                "TAC": "7",
                "RSPR": "-104",
                "time": 1649149751550,
                "registered?": "1"
            }
        ],
        "m115": [
            {
                "technology": "LTE",
                "cell_id": "131078",
                "MCC": "505",
                "MNC": "01",
                "PCI": "6",
                "TAC": "7",
                "RSPR": "-104",
                "time": 1649149752528,
                "registered?": "1"
            }
        ],
        "m116": [
            {
                "technology": "LTE",
                "cell_id": "131078",
                "MCC": "505",
                "MNC": "01",
                "PCI": "6",
                "TAC": "7",
                "RSPR": "-104",
                "time": 1649149753519,
                "registered?": "1"
            }
        ],
        "m117": [
            {
                "technology": "LTE",
                "cell_id": "131078",
                "MCC": "505",
                "MNC": "01",
                "PCI": "6",
                "TAC": "7",
                "RSPR": "-108",
                "time": 1649149754551,
                "registered?": "1"
            }
        ],
        "m118": [
            {
                "technology": "LTE",
                "cell_id": "131078",
                "MCC": "505",
                "MNC": "01",
                "PCI": "6",
                "TAC": "7",
                "RSPR": "-108",
                "time": 1649149755529,
                "registered?": "1"
            }
        ],
        "m119": [
            {
                "technology": "LTE",
                "cell_id": "131078",
                "MCC": "505",
                "MNC": "01",
                "PCI": "6",
                "TAC": "7",
                "RSPR": "-108",
                "time": 1649149756528,
                "registered?": "1"
            }
        ],
        "m120": [
            {
                "technology": "LTE",
                "cell_id": "131078",
                "MCC": "505",
                "MNC": "01",
                "PCI": "6",
                "TAC": "7",
                "RSPR": "-107",
                "time": 1649149757550,
                "registered?": "1"
            }
        ],
        "m121": [
            {
                "technology": "LTE",
                "cell_id": "131078",
                "MCC": "505",
                "MNC": "01",
                "PCI": "6",
                "TAC": "7",
                "RSPR": "-107",
                "time": 1649149758529,
                "registered?": "1"
            }
        ],
        "m122": [
            {
                "technology": "LTE",
                "cell_id": "131078",
                "MCC": "505",
                "MNC": "01",
                "PCI": "6",
                "TAC": "7",
                "RSPR": "-107",
                "time": 1649149759528,
                "registered?": "1"
            }
        ],
        "m123": [
            {
                "technology": "LTE",
                "cell_id": "131078",
                "MCC": "505",
                "MNC": "01",
                "PCI": "6",
                "TAC": "7",
                "RSPR": "-103",
                "time": 1649149760548,
                "registered?": "1"
            }
        ],
        "m124": [
            {
                "technology": "LTE",
                "cell_id": "131078",
                "MCC": "505",
                "MNC": "01",
                "PCI": "6",
                "TAC": "7",
                "RSPR": "-103",
                "time": 1649149761529,
                "registered?": "1"
            }
        ],
        "m125": [
            {
                "technology": "LTE",
                "cell_id": "131078",
                "MCC": "505",
                "MNC": "01",
                "PCI": "6",
                "TAC": "7",
                "RSPR": "-103",
                "time": 1649149762522,
                "registered?": "1"
            }
        ]
    }
}