-92,0,-82,-99,-101,-93,0,0,0,0,0,0,0
-92,0,-82,-99,-101,-93,0,0,0,0,0,0,0
-92,0,-82,-99,-101,-93,0,0,0,0,0,0,0
-89,0,-77,-99,-104,-86,0,0,0,0,0,0,-107
-89,0,-77,-99,-104,-86,0,0,0,0,0,0,-107
-89,0,-77,-99,-104,-86,0,0,0,0,0,0,-107
-84,0,-73,-96,-100,-83,0,0,0,0,0,0,-107
-84,0,-73,-96,-100,-83,0,0,0,0,0,0,-107
-84,0,-73,-96,-100,-83,0,0,0,0,0,0,-107
-85,0,-76,-101,-102,-89,0,0,0,0,0,0,-107
-85,0,-76,-101,-102,-89,0,0,0,0,0,0,-107
-85,0,-76,-101,-102,-89,0,0,0,0,0,0,-107
-91,0,-77,-102,-94,-89,0,0,0,0,0,0,-107
-91,0,-77,-102,-94,-89,0,0,0,0,0,0,-107
-91,0,-77,-102,-94,-89,0,0,0,0,0,0,-107
-94,0,-76,-98,-94,-85,0,0,0,0,0,0,-107
-94,0,-76,-98,-94,-85,0,0,0,0,0,0,-107
-94,0,-76,-98,-94,-85,0,0,0,0,0,0,-107
-93,0,-73,-99,-94,-85,0,0,0,0,0,0,-107
-93,0,-73,-99,-94,-85,0,0,0,0,0,0,-107
-93,0,-73,-99,-94,-85,0,0,0,0,0,0,-107
-85,0,-91,-102,-96,-94,0,0,0,0,0,0,-107
-85,0,-91,-102,-96,-94,0,0,0,0,0,0,-107
-85,0,-91,-102,-96,-94,0,0,0,0,0,0,-107
-90,0,-84,-99,-96,-96,0,0,0,0,0,0,-107
-90,0,-84,-99,-96,-96,0,0,0,0,0,0,-107
-90,0,-84,-99,-96,-96,0,0,0,0,0,0,-107
-85,0,-76,-98,-100,-86,0,0,0,0,0,0,-107
-85,0,-76,-98,-100,-86,0,0,0,0,0,0,-107
-85,0,-76,-98,-100,-86,0,0,0,0,0,0,-107
-90,0,-77,-97,-103,-86,0,0,0,0,0,0,-107
-90,0,-77,-97,-103,-86,0,0,0,0,0,0,-107
-90,0,-77,-97,-103,-86,0,0,0,0,0,0,-107
-88,0,-79,-96,-103,-89,0,0,0,0,0,0,-107
-88,0,-79,-96,-103,-89,0,0,0,0,0,0,-107
-88,0,-79,-96,-97,-86,0,0,0,0,0,0,-107
-88,0,-79,-96,-97,-86,0,0,0,0,0,0,-107
-88,0,-85,-97,-97,-93,0,0,0,0,0,0,-107
-88,0,-85,-97,-97,-93,0,0,0,0,0,0,-107
-86,0,-83,-99,-98,-94,0,0,0,0,0,0,-107
-86,0,-83,-99,-98,-94,0,0,0,0,0,0,-107
-84,0,-82,-97,-95,-89,0,-95,0,0,0,0,-107
-84,0,-82,-97,-95,-89,0,-95,0,0,0,0,-107
-85,0,-76,-99,-99,-88,0,-95,0,0,0,0,-107
-85,0,-76,-99,-99,-88,0,-95,0,0,0,0,-107
-85,0,-76,-99,-99,-88,0,-95,0,0,0,0,-107
-84,0,-80,-96,-94,-93,0,-95,0,0,0,0,-107
-84,0,-80,-96,-94,-93,0,-95,0,0,0,0,-107
-84,0,-80,-96,-94,-93,0,-95,0,0,0,0,-107
-92,0,-89,-100,-95,-99,0,-95,0,0,0,0,-107
-92,0,-89,-100,-95,-99,0,-95,0,0,0,0,-107
-87,0,-87,-98,-101,-96,0,-95,0,0,0,0,-107
-87,0,-87,-98,-101,-96,0,-95,0,0,0,0,-107
-87,0,-87,-98,-101,-96,0,-95,0,0,0,0,-107
-89,0,-88,-103,-102,-98,0,-95,0,0,0,0,-107
-89,0,-88,-103,-102,-98,0,-95,0,0,0,0,-107
-86,0,-85,-99,-106,-96,0,-95,0,0,0,0,-107
-86,0,-85,-99,-106,-96,0,-95,0,0,0,0,-107
-86,0,-85,-99,-106,-96,0,-95,0,0,0,0,-107
-89,0,-85,-106,-100,-95,0,-95,0,0,0,0,-107
-89,0,-85,-106,-100,-95,0,-95,0,0,0,0,-107
-88,0,-87,-102,-106,-97,0,-95,0,0,0,0,-107
-88,0,-87,-102,-106,-97,0,-95,0,0,0,0,-107
-88,0,-87,-102,-106,-97,0,-95,0,0,0,0,-107
-88,0,-86,-104,-98,-95,0,-95,0,0,0,0,-107
-88,0,-86,-104,-98,-95,0,-95,0,0,0,0,-107
-88,0,-86,-104,-98,-95,0,-95,0,0,0,0,-107
-83,0,-81,-102,-102,-92,0,-95,0,0,0,0,-107
-83,0,-81,-102,-102,-92,0,-95,0,0,0,0,-107
-84,0,-79,-100,-103,-91,0,-95,0,0,0,0,-107
-84,0,-79,-100,-103,-91,0,-95,0,0,0,0,-107
-84,0,-79,-100,-103,-91,0,-95,0,0,0,0,-107
-87,0,-80,-102,-103,-89,0,-95,0,0,0,0,-107
-87,0,-80,-102,-103,-89,0,-95,0,0,0,0,-107
-90,0,-80,-100,-99,-94,0,-95,0,0,0,0,-107
-90,0,-80,-100,-99,-94,0,-95,0,0,0,0,-107
-90,0,-80,-100,-99,-94,0,-95,0,0,0,0,-107
-88,0,-72,-98,-99,-83,0,-95,0,0,0,0,-107
-88,0,-72,-98,-99,-83,0,-95,0,0,0,0,-107
-87,0,-76,-98,-96,-88,0,-95,0,0,0,0,-107
-87,0,-76,-98,-96,-88,0,-95,0,0,0,0,-107
-87,0,-76,-98,-96,-88,0,-95,0,0,0,0,-107
-88,0,-73,-96,-98,-86,0,-95,0,0,0,0,-107
-88,0,-73,-96,-98,-86,0,-95,0,0,0,0,-107
-90,0,-81,-101,-92,-93,0,-95,0,0,0,0,-107
-90,0,-81,-101,-92,-93,0,-95,0,0,0,0,-107
-88,0,-80,-96,-99,-91,0,-95,0,0,0,0,-107
-88,0,-80,-96,-99,-91,0,-95,0,0,0,0,-107
-88,0,-80,-96,-99,-91,0,-95,0,0,0,0,-107
-88,0,-78,-101,-98,-90,0,-95,0,0,0,0,-107
-88,0,-78,-101,-98,-90,0,-95,0,0,0,0,-107
-86,0,-78,-100,-103,-88,0,-95,0,0,0,0,-107
-86,0,-78,-100,-103,-88,0,-95,0,0,0,0,-107
-86,0,-78,-100,-103,-88,0,-95,0,0,0,0,-107
-92,0,-84,-105,-101,-95,0,-95,0,0,0,0,-107
-92,0,-84,-105,-101,-95,0,-95,0,0,0,0,-107
-84,0,-77,-97,-104,-90,0,-95,0,0,0,0,-107
-84,0,-77,-97,-104,-90,0,-95,0,0,0,0,-107
-84,0,-77,-97,-104,-90,0,-95,0,0,0,0,-107
-88,0,-77,-102,-95,-87,0,-95,0,0,0,0,-107
-88,0,-77,-102,-95,-87,0,-95,0,0,0,0,-107
-90,0,-81,-101,-95,-94,0,-95,0,0,0,0,-107
-90,0,-81,-101,-95,-94,0,-95,0,0,0,0,-107
-90,0,-81,-101,-95,-94,0,-95,0,0,0,0,-107
-88,0,-84,-103,-100,-95,0,-95,0,0,0,0,-107
-88,0,-84,-103,-100,-95,0,-95,0,0,0,0,-107
-87,0,-79,-96,-103,-89,0,-95,0,0,0,0,-107
-87,0,-79,-96,-103,-89,0,-95,0,0,0,0,-107
-87,0,-79,-96,-103,-89,0,-95,0,0,0,0,-107
-97,0,-80,-104,-105,-90,0,-95,0,0,0,0,-107
-97,0,-80,-104,-105,-90,0,-95,0,0,0,0,-107
-93,0,-84,-100,-99,-94,0,-95,0,0,0,0,-107
-93,0,-84,-100,-99,-94,0,-95,0,0,0,0,-107
-94,0,-80,-95,-101,-91,0,-95,0,0,0,0,-107
-94,0,-80,-95,-101,-91,0,-95,0,0,0,0,-107
-90,0,-79,-100,-105,-89,0,-95,0,0,0,0,-107
-90,0,-79,-100,-105,-89,0,-95,0,0,0,0,-107
-88,0,-77,-97,-105,-87,0,-95,0,0,0,0,-107
-88,0,-77,-97,-105,-87,0,-95,0,0,0,0,-107
-93,0,-82,-105,-100,-95,0,-95,0,0,0,0,-107
-93,0,-82,-105,-100,-95,0,-95,0,0,0,0,-107
-91,0,-82,-99,-102,-92,0,-95,0,0,0,0,-107
-91,0,-82,-99,-102,-92,0,-95,0,0,0,0,-107
-90,0,-88,-100,-99,-88,0,-95,0,0,0,0,-107
-90,0,-88,-100,-99,-88,0,-95,0,0,0,0,-107
-90,0,-88,-100,-99,-88,0,-95,0,0,0,0,-107
-86,0,-89,-98,-93,-94,0,-95,0,0,0,0,-107
-86,0,-89,-98,-93,-94,0,-95,0,0,0,0,-107
-86,0,-89,-98,-93,-94,0,-95,0,0,0,0,-107
-81,0,-89,-103,-101,-93,0,-95,0,0,0,0,-107
-81,0,-89,-103,-101,-93,0,-95,0,0,0,0,-107
-81,0,-89,-103,-101,-93,0,-95,0,0,0,0,-107
-92,0,-81,-103,-95,-95,0,-95,0,0,0,0,-107
-92,0,-81,-103,-95,-95,0,-95,0,0,0,0,-107
-89,0,-88,-95,-98,-95,0,-95,0,0,0,0,-107
-89,0,-88,-95,-98,-95,0,-95,0,0,0,0,-107
-89,0,-88,-95,-98,-95,0,-95,0,0,0,0,-107
-82,0,-82,-100,-93,-86,0,-95,0,0,0,0,-107
-82,0,-82,-100,-93,-86,0,-95,0,0,0,0,-107
-82,0,-82,-100,-93,-86,0,-95,0,0,0,0,-107
-82,0,-82,-102,-98,-95,0,-95,0,0,0,0,-107
-82,0,-82,-102,-98,-95,0,-95,0,0,0,0,-107
-83,0,-87,-100,-95,-95,0,-95,0,0,0,0,-107
-83,0,-87,-100,-95,-95,0,-95,0,0,0,0,-107
-83,0,-87,-100,-95,-95,0,-95,0,0,0,0,-107
-82,0,-87,-97,-91,-95,0,-95,0,0,0,0,-107
-82,0,-87,-97,-91,-95,0,-95,0,0,0,0,-107
-83,0,-92,-101,-97,-93,0,-95,0,0,0,0,-107
-83,0,-92,-101,-97,-93,0,-95,0,0,0,0,-107
-83,0,-92,-101,-97,-93,0,-95,0,0,0,0,-107
-79,0,-82,-101,-99,-92,0,-95,0,0,0,0,-107
-79,0,-82,-101,-99,-92,0,-95,0,0,0,0,-107
-79,0,-82,-101,-99,-92,0,-95,0,0,0,0,-107
-79,0,-83,-97,-95,-93,0,-95,0,0,0,0,-107
-79,0,-83,-97,-95,-93,0,-95,0,0,0,0,-107
-81,0,-87,-99,-93,-95,0,-95,0,0,0,0,-107
-81,0,-87,-99,-93,-95,0,-95,0,0,0,0,-107
-91,0,-83,-97,-102,-98,0,-95,0,0,0,0,-107
-91,0,-83,-97,-102,-98,0,-95,0,0,0,0,-107
-91,0,-83,-97,-102,-98,0,-95,0,0,0,0,-107
-82,0,-83,-101,-88,-96,0,-95,0,0,0,0,-107
-82,0,-83,-101,-88,-96,0,-95,0,0,0,0,-107
-90,0,-85,-102,-93,-100,0,-95,0,0,0,0,-107
-90,0,-85,-102,-93,-100,0,-95,0,0,0,0,-107
-90,0,-85,-102,-93,-100,0,-95,0,0,0,0,-107
-93,0,-87,-101,-105,-95,0,-95,0,0,0,0,-107
-93,0,-87,-101,-105,-95,0,-95,0,0,0,0,-107
-93,0,-87,-101,-105,-95,0,-95,0,0,0,0,-107
-92,0,-86,-95,-90,-97,0,-95,0,0,0,0,-107
-92,0,-86,-95,-90,-97,0,-95,0,0,0,0,-107
-87,0,-81,-101,-95,-97,0,-95,0,0,0,0,-107
-87,0,-81,-101,-95,-97,0,-95,0,0,0,0,-107
-83,0,-87,-99,-98,-98,0,-95,0,0,0,0,-107
-83,0,-87,-99,-98,-98,0,-95,0,0,0,0,-107
-83,0,-87,-99,-98,-98,0,-95,0,0,0,0,-107
-88,0,-83,-100,-104,-94,0,-95,0,0,0,0,-107
-88,0,-83,-100,-104,-94,0,-95,0,0,0,0,-107
-86,0,-83,-100,-102,-96,0,-95,0,0,0,0,-107
-86,0,-83,-100,-102,-96,0,-95,0,0,0,0,-107
-88,0,-82,-99,-98,-93,0,-95,0,0,0,0,-107
-88,0,-82,-99,-98,-93,0,-95,0,0,0,0,-107
-88,0,-82,-99,-98,-93,0,-95,0,0,0,0,-107
-95,0,-94,-101,-107,-101,0,-95,0,0,0,0,-113
-95,0,-94,-101,-107,-101,0,-95,0,0,0,0,-113
-95,0,-94,-101,-107,-101,0,-95,0,0,0,0,-113
-92,0,-79,-94,-98,-95,0,-95,0,0,0,0,-113
-92,0,-79,-94,-98,-95,0,-95,0,0,0,0,-113
-92,0,-79,-94,-98,-95,0,-95,0,0,0,0,-113
-100,0,-86,-94,-94,-96,0,-95,0,0,0,0,-113
-100,0,-86,-94,-94,-96,0,-95,0,0,0,0,-113
-92,0,-86,-97,-96,-101,0,-95,0,0,0,0,-113
-92,0,-86,-97,-96,-101,0,-95,0,0,0,0,-113
-100,0,-87,-102,-92,-100,0,-95,0,0,0,0,-113
-100,0,-87,-102,-92,-100,0,-95,0,0,0,0,-113
-94,0,-87,-101,-90,-101,0,-95,0,0,0,0,-113
-94,0,-87,-101,-90,-101,0,-95,0,0,0,0,-113
-94,0,-90,-99,-90,-96,0,-95,0,0,0,0,-113
-94,0,-90,-99,-90,-96,0,-95,0,0,0,0,-113
-97,0,-86,-95,-87,-101,0,-95,0,0,0,0,-113
-97,0,-86,-95,-87,-101,0,-95,0,0,0,0,-113
-93,0,-86,-101,-98,-93,0,-95,0,0,0,0,-113
-93,0,-86,-101,-98,-93,0,-95,0,0,0,0,-113
-93,0,-86,-101,-98,-93,0,-95,0,0,0,0,-113
-95,0,-91,-105,-93,-94,0,-95,0,0,0,0,-113
-95,0,-91,-105,-93,-94,0,-95,0,0,0,0,-113
-96,0,-83,-103,-95,-94,0,-95,0,0,0,0,-113
-96,0,-83,-103,-95,-94,0,-95,0,0,0,0,-113
-101,0,-83,-102,-96,-92,0,-95,0,0,0,0,-113
-101,0,-83,-102,-96,-92,0,-95,0,0,0,0,-113
-101,0,-83,-102,-96,-92,0,-95,0,0,0,0,-113
-90,0,-94,-100,-92,-90,0,-95,0,0,0,0,-113
-90,0,-94,-100,-92,-90,0,-95,0,0,0,0,-113
-90,0,-94,-100,-92,-90,0,-95,0,0,0,0,-113
-89,0,-90,-107,-101,-91,0,-95,0,0,0,0,-113
-89,0,-90,-107,-101,-91,0,-95,0,0,0,0,-113
-89,0,-90,-107,-101,-91,0,-95,0,0,0,0,-113
-87,0,-90,-103,-98,-91,0,-95,0,0,0,0,-113
-87,0,-90,-103,-98,-91,0,-95,0,0,0,0,-113
-89,0,-91,-104,-99,-91,0,-95,0,0,0,0,-113
-89,0,-91,-104,-99,-91,0,-95,0,0,0,0,-113
-92,0,-90,-103,-90,-90,0,-95,0,0,0,0,-113
-92,0,-90,-103,-90,-90,0,-95,0,0,0,0,-113
-92,0,-90,-103,-90,-90,0,-95,0,0,0,0,-113
-96,0,-87,-103,-96,-88,0,-95,0,0,0,0,-113
-96,0,-87,-103,-96,-88,0,-95,0,0,0,0,-113
-98,0,-87,-103,-96,-87,0,-95,0,0,0,0,-113
-98,0,-87,-103,-96,-87,0,-95,0,0,0,0,-113
-98,0,-87,-103,-96,-87,0,-95,0,0,0,0,-113
-99,0,-93,-102,-95,-86,0,-95,0,0,0,0,-113
-99,0,-93,-102,-95,-86,0,-95,0,0,0,0,-113
-99,0,-92,-97,-90,-88,0,-95,0,0,0,0,-113
-99,0,-92,-97,-90,-88,0,-95,0,0,0,0,-113
-96,0,-93,-98,-97,-97,0,-95,0,0,0,0,-113
-96,0,-93,-98,-97,-97,0,-95,0,0,0,0,-113
-96,0,-93,-98,-97,-97,0,-95,0,0,0,0,-113
-96,0,-86,-98,-94,-93,0,-95,0,0,0,0,-113
-96,0,-86,-98,-94,-93,0,-95,0,0,0,0,-113
-96,0,-86,-98,-94,-93,0,-95,0,0,0,0,-113
-92,0,-98,-102,-95,-95,0,-95,0,0,0,0,-113
-92,0,-98,-102,-95,-95,0,-95,0,0,0,0,-113
-90,0,-93,-101,-98,-95,0,-95,0,0,0,0,-113
-90,0,-93,-101,-98,-95,0,-95,0,0,0,0,-113
-90,0,-93,-101,-98,-95,0,-95,0,0,0,0,-113
-99,-114,-91,-98,-104,-97,0,-95,0,0,0,0,-113
-99,-114,-91,-98,-104,-97,0,-95,0,0,0,0,-113
-96,-114,-94,-100,-95,-93,0,-95,0,0,0,0,-113
-96,-114,-94,-100,-95,-93,0,-95,0,0,0,0,-113
-96,-114,-86,-97,-94,-100,0,-95,0,0,0,0,-113
-96,-114,-86,-97,-94,-100,0,-95,0,0,0,0,-113
-96,-114,-86,-97,-94,-100,0,-95,0,0,0,0,-113
-96,-114,-94,-105,-90,-105,0,-95,0,0,0,0,-113
-96,-114,-94,-105,-90,-105,0,-95,0,0,0,0,-113
-95,-114,-94,-105,-90,-105,0,-95,0,0,0,0,-113
-95,-114,-94,-105,-90,-105,0,-95,0,0,0,0,-113
-100,-114,-94,-105,-90,-105,0,-95,0,0,0,0,-113
-100,-114,-94,-105,-90,-105,0,-95,0,0,0,0,-113
-79,-114,-80,-96,-95,-95,0,-95,0,0,0,0,-113
-79,-114,-80,-96,-95,-95,0,-95,0,0,0,0,-113
-79,-114,-80,-101,-91,-96,0,-95,0,0,0,0,-113
-79,-114,-80,-101,-91,-96,0,-95,0,0,0,0,-113
-77,-114,-80,-96,-93,-93,0,-95,0,0,0,0,-113
-77,-114,-80,-96,-93,-93,0,-95,0,0,0,0,-113
-81,-114,-80,-98,-100,-93,0,-95,0,0,0,0,-113
-81,-114,-80,-98,-100,-93,0,-95,0,0,0,0,-113
-79,-114,-80,-97,-96,-94,0,-95,0,0,0,0,-113
-79,-114,-80,-97,-96,-94,0,-95,0,0,0,0,-113
-79,-114,-80,-97,-96,-94,0,-95,0,0,0,0,-113
-83,-110,-80,-98,-98,-99,0,-95,0,0,0,0,-113
-83,-110,-80,-98,-98,-99,0,-95,0,0,0,0,-113
-83,-110,-80,-98,-96,-100,0,-95,0,0,0,0,-113
-83,-110,-80,-98,-96,-100,0,-95,0,0,0,0,-113
-80,-106,-80,-98,-96,-98,0,-95,0,0,0,0,-113
-80,-106,-80,-98,-96,-98,0,-95,0,0,0,0,-113
-80,-106,-80,-98,-96,-98,0,-95,0,0,0,0,-113
-82,-106,-80,-101,-97,-95,0,-95,0,0,0,0,-113
-82,-106,-80,-101,-97,-95,0,-95,0,0,0,0,-113
-78,-106,-80,-95,-93,-97,0,-95,0,0,0,0,-113
-78,-106,-80,-95,-93,-97,0,-95,0,0,0,0,-113
-76,-104,-80,-97,-95,-89,0,-95,0,0,0,0,-113
-76,-104,-80,-97,-95,-89,0,-95,0,0,0,0,-113
-76,-104,-80,-97,-95,-89,0,-95,0,0,0,0,-113
-78,-104,-80,-96,-93,-95,0,-95,0,0,0,0,-113
-78,-104,-80,-96,-93,-95,0,-95,0,0,0,0,-113
-78,-104,-80,-98,-93,-95,0,-95,0,0,0,0,-113
-78,-104,-80,-98,-93,-95,0,-95,0,0,0,0,-113
-79,-104,-80,-96,-94,-95,0,-95,0,0,0,0,-113
-79,-104,-80,-96,-94,-95,0,-95,0,0,0,0,-113
-79,-104,-80,-96,-94,-95,0,-95,0,0,0,0,-113
-86,-104,-80,-98,-101,-93,0,-95,0,0,0,0,-113
-86,-104,-80,-98,-101,-93,0,-95,0,0,0,0,-113
-86,-104,-80,-98,-101,-93,0,-95,0,0,0,0,-113
-86,-114,-80,-101,-100,-102,0,-95,0,0,0,0,-113
-86,-114,-80,-101,-100,-102,0,-95,0,0,0,0,-113
-86,-114,-80,-101,-100,-102,0,-95,0,0,0,0,-113
-90,-114,-80,-100,-102,-95,0,-95,0,0,0,0,-113
-90,-114,-80,-100,-102,-95,0,-95,0,0,0,0,-113
-90,-114,-80,-100,-102,-95,0,-95,0,0,0,0,-113
-90,-114,-80,-101,-105,-95,0,-95,0,0,0,0,-113
-90,-114,-80,-101,-105,-95,0,-95,0,0,0,0,-113
-85,-116,-80,-101,-95,-105,0,-95,0,0,0,0,-113
-85,-116,-80,-101,-95,-105,0,-95,0,0,0,0,-113
-85,-116,-80,-101,-95,-105,0,-95,0,0,0,0,-113
-88,-116,-80,-103,-92,-102,0,-95,0,0,0,0,-113
-88,-116,-80,-103,-92,-102,0,-95,0,0,0,0,-113
-88,-116,-80,-103,-92,-102,0,-95,0,0,0,0,-113
-87,-116,-80,-100,-92,-98,0,-95,0,0,0,0,-113
-87,-116,-80,-100,-92,-98,0,-95,0,0,0,0,-113
-88,-116,-80,-102,-99,-99,0,-95,0,0,0,0,-113
-88,-116,-80,-102,-99,-99,0,-95,0,0,0,0,-113
-88,-116,-80,-102,-99,-99,0,-95,0,0,0,0,-113
-84,-116,-80,-97,-97,-97,0,-95,0,0,0,0,-113
-84,-116,-80,-97,-97,-97,0,-95,0,0,0,0,-113
-89,-116,-80,-102,-92,-98,0,-95,0,0,0,0,-113
-89,-116,-80,-102,-92,-98,0,-95,0,0,0,0,-113
-87,-116,-80,-98,-96,-100,0,-95,0,0,0,0,-113
-87,-116,-80,-98,-96,-100,0,-95,0,0,0,0,-113
-87,-116,-80,-98,-96,-100,0,-95,0,0,0,0,-113
-82,-116,-80,-104,-95,-97,0,-95,0,0,0,0,-113
-82,-116,-80,-104,-95,-97,0,-95,0,0,0,0,-113
-80,-116,-80,-99,-99,-93,0,-95,0,0,0,0,-113
-80,-116,-80,-99,-99,-93,0,-95,0,0,0,0,-113
-82,-116,-80,-102,-99,-99,0,-95,0,-105,0,0,-113
-82,-116,-80,-102,-99,-99,0,-95,0,-105,0,0,-113
-82,-116,-80,-102,-99,-99,0,-95,0,-105,0,0,-113
-81,-116,-80,-101,-97,-101,0,-95,0,-105,0,0,-113
-81,-116,-80,-101,-97,-101,0,-95,0,-105,0,0,-113
-76,-116,-80,-96,-98,-93,0,-95,0,-105,0,0,-113
-76,-116,-80,-96,-98,-93,0,-95,0,-105,0,0,-113
-76,-116,-80,-96,-98,-93,0,-95,0,-105,0,0,-113
-79,-116,-80,-96,-97,-94,0,-95,0,-105,0,0,-113
-79,-116,-80,-96,-97,-94,0,-95,0,-105,0,0,-113
-83,-116,-80,-104,-94,-96,0,-95,0,-105,0,0,-113
-83,-116,-80,-104,-94,-96,0,-95,0,-105,0,0,-113
-83,-116,-80,-104,-94,-96,0,-95,0,-105,0,0,-113
-84,-116,-80,-99,-95,-100,0,-95,0,-105,0,0,-113
-84,-116,-80,-99,-95,-100,0,-95,0,-105,0,0,-113
-84,-116,-80,-99,-95,-100,0,-95,0,-105,0,0,-113
-82,-116,-80,-98,-90,-97,0,-95,0,-105,0,0,-113
-82,-116,-80,-98,-90,-97,0,-95,0,-105,0,0,-113
-88,-116,-80,-99,-98,-101,0,-95,0,-105,0,0,-113
-88,-116,-80,-99,-98,-101,0,-95,0,-105,0,0,-113
-85,-116,-80,-100,-95,-101,0,-95,0,-105,0,0,-113
-85,-116,-80,-100,-95,-101,0,-95,0,-105,0,0,-113
-85,-116,-80,-100,-95,-101,0,-95,0,-105,0,0,-113
-83,-105,-80,-100,-95,-92,0,-95,0,-105,0,0,-113
-83,-105,-80,-100,-95,-92,0,-95,0,-105,0,0,-113
-83,-105,-80,-100,-95,-92,0,-95,0,-105,0,0,-113
-88,-104,-80,-102,-106,-92,0,-95,0,-105,0,0,-113
-88,-104,-80,-102,-106,-92,0,-95,0,-105,0,0,-113
-90,-104,-80,-98,-101,-92,0,-95,0,-105,0,0,-113
-90,-104,-80,-98,-101,-92,0,-95,0,-105,0,0,-113
-84,-112,-80,-97,-89,-96,0,-95,0,-105,0,0,-113
-84,-112,-80,-97,-89,-96,0,-95,0,-105,0,0,-113
-84,-112,-80,-97,-89,-96,0,-95,0,-105,0,0,-113
-86,-112,-80,-97,-91,-95,0,-95,0,-105,0,0,-113
-86,-112,-80,-97,-91,-95,0,-95,0,-105,0,0,-113
-86,-112,-80,-97,-91,-95,0,-95,0,-105,0,0,-113
-85,-109,-80,-98,-92,-96,0,-95,0,-105,0,0,-113
-85,-109,-80,-98,-92,-96,0,-95,0,-105,0,0,-113
-80,-109,-80,-96,-90,-97,0,-95,0,-105,0,0,-113
-80,-109,-80,-96,-90,-97,0,-95,0,-105,0,0,-113
-87,-109,-80,-96,-104,-102,0,-95,0,-105,0,0,-113
-87,-109,-80,-96,-104,-102,0,-95,0,-105,0,0,-113
-84,-107,-80,-100,-101,-99,0,-95,0,-105,0,0,-113
-84,-107,-80,-100,-101,-99,0,-95,0,-105,0,0,-113
-84,-107,-80,-100,-101,-99,0,-95,0,-105,0,0,-113
-86,-107,-80,-103,-103,-97,0,-95,0,-105,0,0,-113
-86,-107,-80,-103,-103,-97,0,-95,0,-105,0,0,-113
-86,-107,-80,-103,-103,-97,0,-95,0,-105,0,0,-113
-84,-107,-80,-93,-102,-98,0,-95,0,-105,0,0,-113
-84,-107,-80,-93,-102,-98,0,-95,0,-105,0,0,-113
-84,-107,-80,-93,-102,-98,0,-95,0,-105,0,0,-113
-88,-109,-80,-95,-97,-100,0,-95,0,-105,0,0,-113
-88,-109,-80,-95,-97,-100,0,-95,0,-105,0,0,-113
-88,-109,-80,-95,-97,-100,0,-95,0,-105,0,0,-113
-88,-109,-80,-105,-96,-98,0,-95,0,-105,0,0,-113
-88,-109,-80,-105,-96,-98,0,-95,0,-105,0,0,-113
-86,-109,-80,-95,-93,-105,0,-95,0,-105,0,0,-113
-86,-109,-80,-95,-93,-105,0,-95,0,-105,0,0,-113
-86,-109,-80,-95,-93,-105,0,-95,0,-105,0,0,-113
-95,-117,-80,-103,-96,-108,0,-95,0,-105,0,0,-113
-95,-117,-80,-103,-96,-108,0,-95,0,-105,0,0,-113
-93,-116,-80,-103,-96,-106,0,-95,0,-105,0,0,-113
-93,-116,-80,-103,-96,-106,0,-95,0,-105,0,0,-113
-92,-115,-80,-105,-98,-104,0,-95,0,-105,0,0,-113
-92,-115,-80,-105,-98,-104,0,-95,0,-105,0,0,-113
-88,-111,-80,-102,-101,-101,0,-95,0,-105,0,0,-113
-88,-111,-80,-102,-101,-101,0,-95,0,-105,0,0,-113
-88,-112,-80,-103,-98,-104,0,-95,0,-105,0,0,-113
-88,-112,-80,-103,-98,-104,0,-95,0,-105,0,0,-113
-88,-112,-80,-103,-98,-104,0,-95,0,-105,0,0,-113
-89,-108,-80,-100,-96,-96,0,-95,0,-105,0,0,-113
-89,-108,-80,-100,-96,-96,0,-95,0,-105,0,0,-113
-90,-112,-80,-102,-101,-100,0,-95,0,-105,0,0,-113
-90,-112,-80,-102,-101,-100,0,-95,0,-105,0,0,-113
-91,-104,-80,-100,-95,-94,0,-95,0,-105,0,0,-113
-91,-104,-80,-100,-95,-94,0,-95,0,-105,0,0,-113
-86,-106,-80,-99,-96,-99,0,-95,0,-105,0,0,-113
-86,-106,-80,-99,-96,-99,0,-95,0,-105,0,0,-113
-86,-106,-80,-99,-96,-99,0,-95,0,-105,0,0,-113
-87,-106,-80,-99,-101,-101,0,-95,0,-105,0,0,-113
-87,-106,-80,-99,-101,-101,0,-95,0,-105,0,0,-113
-90,-110,-80,-100,-99,-97,0,-95,0,-105,0,0,-113
-90,-110,-80,-100,-99,-97,0,-95,0,-105,0,0,-113
-90,-110,-80,-100,-99,-97,0,-95,0,-105,0,0,-113
-83,-104,-80,-97,-100,-95,0,-95,0,-105,0,0,-113
-83,-104,-80,-97,-100,-95,0,-95,0,-105,0,0,-113
-92,-104,-80,-98,-96,-90,0,-95,0,-105,0,0,-113
-92,-104,-80,-98,-96,-90,0,-95,0,-105,0,0,-113
-79,-102,-80,-99,-94,-92,0,-95,0,-105,0,0,-113
-79,-102,-80,-99,-94,-92,0,-95,0,-105,0,0,-113
-79,-102,-80,-99,-94,-92,0,-95,0,-105,0,0,-113
-85,-109,-80,-95,-92,-97,0,-95,0,-105,0,0,-113
-85,-109,-80,-95,-92,-97,0,-95,0,-105,0,0,-113
-92,-109,-80,-103,-93,-98,0,-95,0,-105,0,0,-113
-92,-109,-80,-103,-93,-98,0,-95,0,-105,0,0,-113
-92,-109,-80,-101,-94,-98,0,-95,0,-105,0,0,-113
-92,-109,-80,-101,-94,-98,0,-95,0,-105,0,0,-113
-92,-109,-80,-101,-94,-98,0,-95,0,-105,0,0,-113
-91,-109,-80,-104,-98,-101,0,-95,0,-105,0,0,-113
-91,-109,-80,-104,-98,-101,0,-95,0,-105,0,0,-113
-93,-109,-80,-106,-97,-100,0,-95,0,-105,0,0,-113
-93,-109,-80,-106,-97,-100,0,-95,0,-105,0,0,-113
-93,-109,-80,-106,-97,-100,0,-95,0,-105,0,0,-113
-93,-109,-80,-104,-91,-91,0,-95,0,-105,0,0,-113
-93,-109,-80,-104,-91,-91,0,-95,0,-105,0,0,-113
-89,-109,-80,-95,-98,-102,0,-95,0,-105,0,0,-113
-89,-109,-80,-95,-98,-102,0,-95,0,-105,0,0,-113
-77,-109,-80,-99,-95,-98,0,-95,0,-105,0,0,-113
-77,-109,-80,-99,-95,-98,0,-95,0,-105,0,0,-113
-77,-109,-80,-99,-95,-98,0,-95,0,-105,0,0,-113
-77,-109,-80,-96,-97,-104,0,-95,0,-105,0,0,-113
-77,-109,-80,-96,-97,-104,0,-95,0,-105,0,0,-113
-77,-109,-80,-96,-97,-104,0,-95,0,-105,0,0,-113
-78,-109,-80,-96,-97,-104,0,-95,0,-105,0,0,-113
-78,-109,-80,-96,-97,-104,0,-95,0,-105,0,0,-113
-75,-109,-80,-91,-94,-104,0,-95,0,-105,0,0,-113
-75,-109,-80,-91,-94,-104,0,-95,0,-105,0,0,-113
-77,-109,-80,-84,-91,-101,0,-95,0,-105,0,0,-113
-77,-109,-80,-84,-91,-101,0,-95,0,-105,0,0,-113
-77,-109,-80,-84,-91,-101,0,-95,0,-105,0,0,-113
-78,-109,-80,-84,-92,-101,0,-95,0,-105,0,0,-113
-78,-109,-80,-84,-92,-101,0,-95,0,-105,0,0,-113
-78,-109,-80,-84,-92,-101,0,-95,0,-105,0,0,-113
-79,-109,-80,-97,-101,-101,0,-95,0,-105,0,0,-113
-79,-109,-80,-97,-101,-101,0,-95,0,-105,0,0,-113
-87,-109,-80,-92,-100,-102,0,-95,0,-105,0,0,-113
-87,-109,-80,-92,-100,-102,0,-95,0,-105,0,0,-113
-87,-109,-80,-92,-100,-102,0,-95,0,-105,0,0,-113
-86,-109,-80,-105,-101,-102,0,-95,0,-105,0,0,-113
-86,-109,-80,-105,-101,-102,0,-95,0,-105,0,0,-113
-86,-109,-80,-105,-101,-102,0,-95,0,-105,0,0,-113
-87,-109,-80,-97,-100,-101,0,-95,0,-105,0,0,-113
-87,-109,-80,-97,-100,-101,0,-95,0,-105,0,0,-113
-90,-109,-80,-98,-99,-102,0,-95,0,-105,0,0,-113
-90,-109,-80,-98,-99,-102,0,-95,0,-105,0,0,-113
-95,-109,-80,-100,-103,-101,0,-95,0,-105,0,0,-113
-95,-109,-80,-100,-103,-101,0,-95,0,-105,0,0,-113
-92,-109,-80,-103,-104,-104,0,-95,0,-105,0,0,-113
-92,-109,-80,-103,-104,-104,0,-95,0,-105,0,0,-113
-92,-109,-80,-103,-104,-104,0,-95,0,-105,0,0,-113
-87,-109,-80,-105,-100,-105,0,-95,0,-105,0,0,-113
-87,-109,-80,-105,-100,-105,0,-95,0,-105,0,0,-113
-89,-109,-80,-98,-102,-100,0,-95,0,-105,0,0,-113
-89,-109,-80,-98,-102,-100,0,-95,0,-105,0,0,-113
-84,-109,-80,-103,-101,-97,0,-95,0,-105,0,0,-113
-84,-109,-80,-103,-101,-97,0,-95,0,-105,0,0,-113
-89,-109,-80,-101,-98,-101,0,-95,0,-108,0,0,-113
-89,-109,-80,-101,-98,-101,0,-95,0,-108,0,0,-113
-89,-109,-80,-101,-98,-101,0,-95,0,-108,0,0,-113
-87,-109,-80,-103,-97,-96,0,-95,0,-108,0,0,-113
-87,-109,-80,-103,-97,-96,0,-95,0,-108,0,0,-113
-87,-109,-80,-100,-94,-104,0,-95,0,-108,0,0,-113
-87,-109,-80,-100,-94,-104,0,-95,0,-108,0,0,-113
-83,-109,-80,-97,-92,-98,0,-95,0,-108,0,0,-113
-83,-109,-80,-97,-92,-98,0,-95,0,-108,0,0,-113
-83,-109,-80,-97,-92,-98,0,-95,0,-108,0,0,-113
-89,-109,-80,-102,-96,-92,0,-95,0,-108,0,0,-113
-89,-109,-80,-102,-96,-92,0,-95,0,-108,0,0,-113
-89,-109,-80,-102,-96,-92,0,-95,0,-108,0,0,-113
-85,-109,-80,-98,-92,-93,0,-95,0,-108,0,0,-113
-85,-109,-80,-98,-92,-93,0,-95,0,-108,0,0,-113
-90,-109,-80,-97,-94,-99,0,-95,0,-108,0,0,-113
-90,-109,-80,-97,-94,-99,0,-95,0,-108,0,0,-113
-89,-109,-80,-107,-99,-96,0,-95,0,-108,0,0,-113
-89,-109,-80,-107,-99,-96,0,-95,0,-108,0,0,-113
-86,-109,-80,-103,-95,-93,0,-95,0,-108,0,0,-113
-86,-109,-80,-103,-95,-93,0,-95,0,-108,0,0,-113
-86,-109,-80,-103,-95,-93,0,-95,0,-108,0,0,-113
-88,-109,-80,-104,-97,-89,0,-95,0,-108,0,0,-113
-88,-109,-80,-104,-97,-89,0,-95,0,-108,0,0,-113
-89,-109,-80,-99,-96,-89,0,-95,0,-108,0,0,-113
-89,-109,-80,-99,-96,-89,0,-95,0,-108,0,0,-113
-89,-109,-80,-99,-96,-89,0,-95,0,-108,0,0,-113
-87,-109,-80,-100,-96,-98,0,-95,0,-108,0,0,-113
-87,-109,-80,-100,-96,-98,0,-95,0,-108,0,0,-113
-85,-109,-80,-107,-97,-98,0,-95,0,-108,0,0,-113
-85,-109,-80,-107,-97,-98,0,-95,0,-108,0,0,-113
-90,-109,-80,-96,-99,-91,0,-95,0,-108,0,0,-113
-90,-109,-80,-96,-99,-91,0,-95,0,-108,0,0,-113
-90,-109,-80,-96,-99,-91,0,-95,0,-108,0,0,-113
-90,-109,-80,-96,-94,-101,0,-95,0,-108,0,0,-113
-90,-109,-80,-96,-94,-101,0,-95,0,-108,0,0,-113
-87,-102,-80,-100,-102,-98,0,-95,0,-108,0,0,-113
-87,-102,-80,-100,-102,-98,0,-95,0,-108,0,0,-113
-87,-102,-80,-100,-102,-98,0,-95,0,-108,0,0,-113
-85,-101,-80,-98,-95,-94,0,-95,0,-108,0,0,-113
-85,-101,-80,-98,-95,-94,0,-95,0,-108,0,0,-113
-85,-101,-80,-98,-95,-94,0,-95,0,-108,0,0,-113
-83,-101,-80,-94,-93,-96,0,-95,0,-108,0,0,-113
-83,-101,-80,-94,-93,-96,0,-95,0,-108,0,0,-113
-83,-101,-80,-94,-93,-96,0,-95,0,-108,0,0,-113
-86,-101,-80,-103,-100,-102,0,-95,0,-108,0,0,-113
-86,-101,-80,-103,-100,-102,0,-95,0,-108,0,0,-113
-82,-101,-80,-100,-97,-105,0,-95,0,-108,0,0,-113
-82,-101,-80,-100,-97,-105,0,-95,0,-108,0,0,-113
-82,-101,-80,-100,-97,-105,0,-95,0,-108,0,0,-113
-88,-101,-80,-97,-93,-96,0,-95,0,-108,0,0,-113
-88,-101,-80,-97,-93,-96,0,-95,0,-108,0,0,-113
-88,-101,-80,-100,-95,-96,0,-95,0,-108,0,0,-113
-88,-101,-80,-100,-95,-96,0,-95,0,-108,0,0,-113
-88,-101,-80,-100,-95,-96,0,-95,0,-108,0,0,-113
-82,-101,-80,-98,-95,-95,0,-95,0,-108,0,0,-113
-82,-101,-80,-98,-95,-95,0,-95,0,-108,0,0,-113
-80,-101,-80,-100,-100,-96,0,-95,0,-108,0,0,-113
-80,-101,-80,-100,-100,-96,0,-95,0,-108,0,0,-113
-80,-101,-80,-100,-100,-96,0,-95,0,-108,0,0,-113
-91,-101,-80,-96,-99,-95,0,-95,0,-108,0,0,-113
-91,-101,-80,-96,-99,-95,0,-95,0,-108,0,0,-113
-81,-101,-80,-103,-101,-99,0,-95,0,-108,0,0,-113
-81,-101,-80,-103,-101,-99,0,-95,0,-108,0,0,-113
-77,-101,-80,-103,-94,-106,0,-95,0,-108,0,0,-113
-77,-101,-80,-103,-94,-106,0,-95,0,-108,0,0,-113
-80,-101,-80,-100,-104,-106,0,-95,0,-108,0,0,-113
-80,-101,-80,-100,-104,-106,0,-95,0,-108,0,0,-113
-80,-101,-80,-100,-104,-106,0,-95,0,-108,0,0,-113
-81,-101,-80,-102,-97,-102,0,-95,0,-108,0,0,-113
-81,-101,-80,-102,-97,-102,0,-95,0,-108,0,0,-113
-81,-101,-80,-102,-97,-102,0,-95,0,-108,0,0,-113
-86,-101,-80,-104,-95,-92,0,-95,0,-108,0,0,-113
-86,-101,-80,-104,-95,-92,0,-95,0,-108,0,0,-113
-86,-101,-80,-104,-95,-92,0,-95,0,-108,0,0,-113
-86,-101,-80,-104,-95,-92,0,-95,0,-108,0,0,-113
-86,-101,-80,-104,-95,-92,0,-95,0,-108,0,0,-113
-84,-101,-80,-105,-95,-92,0,-95,0,-108,0,0,-113
-84,-101,-80,-105,-95,-92,0,-95,0,-108,0,0,-113
-86,-101,-80,-105,-99,-102,0,-95,0,-108,0,0,-113
-86,-101,-80,-105,-99,-102,0,-95,0,-108,0,0,-113
-86,-101,-80,-105,-99,-102,0,-95,0,-108,0,0,-113
-89,-101,-80,-103,-97,-108,0,-95,0,-108,0,0,-113
-89,-101,-80,-103,-97,-108,0,-95,0,-108,0,0,-113
-92,-101,-80,-103,-97,-108,0,-95,0,-108,0,0,-113
-92,-101,-80,-103,-97,-108,0,-95,0,-108,0,0,-113
-92,-101,-80,-103,-97,-108,0,-95,0,-108,0,0,-113
-87,-101,-80,-103,-97,-108,0,-95,0,-108,0,0,-113
-87,-101,-80,-103,-97,-108,0,-95,0,-108,0,0,-113
-88,-101,-80,-103,-97,-108,0,-95,0,-108,0,0,-113
-88,-101,-80,-103,-97,-108,0,-95,0,-108,0,0,-113
-87,-101,-80,-103,-97,-108,0,-95,0,-108,0,0,-113
-87,-101,-80,-103,-97,-108,0,-95,0,-108,0,0,-113
-87,-101,-80,-103,-97,-108,0,-95,0,-108,0,0,-113
-86,-101,-80,-103,-97,-108,0,-95,0,-108,0,0,-113
-86,-101,-80,-103,-97,-108,0,-95,0,-108,0,0,-113
-86,-101,-80,-103,-97,-108,0,-95,0,-108,0,0,-113
-86,-101,-80,-103,-97,-108,0,-95,0,-108,0,0,-113
-86,-101,-80,-103,-97,-108,0,-95,0,-108,0,0,-113
-87,-101,-80,-103,-97,-108,0,-95,0,-108,0,0,-113
-87,-101,-80,-103,-97,-108,0,-95,0,-108,0,0,-113
-87,-101,-80,-103,-97,-108,0,-95,0,-108,0,0,-113
-91,-101,-80,-103,-97,-108,0,-95,0,-108,0,0,-113
-91,-101,-80,-103,-97,-108,0,-95,0,-108,0,0,-113
-90,-101,-80,-103,-97,-108,0,-95,0,-108,0,0,-113
-90,-101,-80,-103,-97,-108,0,-95,0,-108,0,0,-113
-90,-101,-80,-103,-97,-108,0,-95,0,-108,0,0,-113
-90,-101,-80,-103,-97,-96,0,-95,0,-108,0,0,-113
-90,-101,-80,-103,-97,-96,0,-95,0,-108,0,0,-113
-90,-101,-80,-103,-97,-96,0,-95,0,-108,0,0,-113
-90,-101,-80,-97,-97,-98,0,-95,0,-108,0,0,-113
-90,-101,-80,-97,-97,-98,0,-95,0,-108,0,0,-113
-89,-101,-80,-97,-95,-95,0,-95,0,-108,0,0,-113
-89,-101,-80,-97,-95,-95,0,-95,0,-108,0,0,-113
-88,-101,-80,-105,-101,-99,0,-95,0,-108,0,-109,-113
-88,-101,-80,-105,-101,-99,0,-95,0,-108,0,-109,-113
-88,-101,-80,-105,-101,-99,0,-95,0,-108,0,-109,-113
-88,-101,-80,-100,-94,-93,0,-95,0,-108,0,-109,-113
-88,-101,-80,-100,-94,-93,0,-95,0,-108,0,-109,-113
-85,-101,-80,-102,-96,-94,0,-95,0,-108,0,-109,-113
-85,-101,-80,-102,-96,-94,0,-95,0,-108,0,-109,-113
-85,-101,-80,-102,-96,-94,0,-95,0,-108,0,-109,-113
-91,-101,-80,-103,-98,-101,0,-95,0,-108,0,-109,-113
-91,-101,-80,-103,-98,-101,0,-95,0,-108,0,-109,-113
-83,-101,-80,-102,-95,-98,0,-95,0,-108,0,-109,-113
-83,-101,-80,-102,-95,-98,0,-95,0,-108,0,-109,-113
-83,-101,-80,-102,-95,-98,0,-95,0,-108,0,-109,-113
-87,-101,-80,-99,-99,-96,0,-95,0,-108,0,-109,-113
-87,-101,-80,-99,-99,-96,0,-95,0,-108,0,-109,-113
-81,-101,-80,-98,-104,-97,0,-95,0,-108,0,-109,-113
-81,-101,-80,-98,-104,-97,0,-95,0,-108,0,-109,-113
-83,-101,-80,-99,-98,-95,0,-95,0,-108,0,-109,-113
-83,-101,-80,-99,-98,-95,0,-95,0,-108,0,-109,-113
-83,-101,-80,-99,-98,-95,0,-95,0,-108,0,-109,-113
-83,-101,-80,-102,-98,-95,0,-95,0,-108,0,-109,-113
-83,-101,-80,-102,-98,-95,0,-95,0,-108,0,-109,-113
-90,-101,-80,-105,-102,-96,0,-95,0,-108,0,-109,-113
-90,-101,-80,-105,-102,-96,0,-95,0,-108,0,-109,-113
-90,-101,-80,-105,-102,-96,0,-95,0,-108,0,-109,-113
-95,-101,-80,-106,-103,-97,0,-95,0,-108,0,-109,-113
-95,-101,-80,-106,-103,-97,0,-95,0,-108,0,-109,-113
-89,-101,-80,-106,-103,-97,0,-95,0,-108,0,-109,-113
-89,-101,-80,-106,-103,-97,0,-95,0,-108,0,-109,-113
-88,-101,-80,-106,-103,-97,0,-95,0,-108,0,-109,-113
-88,-101,-80,-106,-103,-97,0,-95,0,-108,0,-109,-113
-88,-101,-80,-106,-103,-97,0,-95,0,-108,0,-109,-113
-88,-101,-80,-106,-103,-97,0,-95,0,-108,0,-109,-113
-88,-101,-80,-106,-103,-97,0,-95,0,-108,0,-109,-113
-88,-101,-80,-106,-103,-97,0,-95,0,-108,0,-109,-113
-88,-101,-80,-109,-102,-98,0,-95,0,-108,0,-109,-113
-88,-101,-80,-109,-102,-98,0,-95,0,-108,0,-109,-113
-86,-101,-80,-96,-96,-95,0,-95,0,-108,0,-109,-113
-86,-101,-80,-96,-96,-95,0,-95,0,-108,0,-109,-113
-86,-101,-80,-96,-96,-95,0,-95,0,-108,0,-109,-113
-85,-101,-80,-96,-86,-99,0,-95,0,-108,0,-109,-113
-85,-101,-80,-96,-86,-99,0,-95,0,-108,0,-109,-113
-90,-101,-80,-93,-91,-96,0,-95,0,-108,0,-109,-113
-90,-101,-80,-93,-91,-96,0,-95,0,-108,0,-109,-113
-90,-101,-80,-93,-91,-96,0,-95,0,-108,0,-109,-113
-88,-101,-80,-93,-97,-98,0,-95,0,-108,0,-109,-113
-88,-101,-80,-93,-97,-98,0,-95,0,-108,0,-109,-113
-88,-101,-80,-93,-97,-98,0,-95,0,-108,0,-109,-113
-78,-101,-80,-93,-99,-98,0,-95,0,-108,0,-109,-113
-78,-101,-80,-93,-99,-98,0,-95,0,-108,0,-109,-113
-78,-101,-80,-93,-99,-98,0,-95,0,-108,0,-109,-113
-78,-101,-80,-95,-95,-103,0,-95,0,-108,0,-109,-113
-78,-101,-80,-95,-95,-103,0,-95,0,-108,0,-109,-113
-82,-101,-80,-92,-97,-99,0,-95,-100,-108,0,-109,-113
-82,-101,-80,-92,-97,-99,0,-95,-100,-108,0,-109,-113
-82,-101,-80,-92,-97,-99,0,-95,-100,-108,0,-109,-113
-79,-101,-80,-90,-98,-96,0,-95,-100,-108,0,-109,-113
-79,-101,-80,-90,-98,-96,0,-95,-100,-108,0,-109,-113
-85,-101,-80,-94,-102,-101,0,-95,-100,-108,0,-109,-113
-85,-101,-80,-94,-102,-101,0,-95,-100,-108,0,-109,-113
-86,-101,-80,-100,-102,-102,0,-95,-100,-108,0,-109,-113
-86,-101,-80,-100,-102,-102,0,-95,-100,-108,0,-109,-113
-87,-101,-80,-100,-99,-103,0,-95,-100,-108,0,-109,-113
-87,-101,-80,-100,-99,-103,0,-95,-100,-108,0,-109,-113
-87,-101,-80,-91,-97,-96,0,-95,-100,-108,0,-109,-113
-87,-101,-80,-91,-97,-96,0,-95,-100,-108,0,-109,-113
-81,-101,-80,-100,-103,-106,0,-95,-100,-108,0,-109,-113
-81,-101,-80,-100,-103,-106,0,-95,-100,-108,0,-109,-113
-81,-101,-80,-100,-103,-106,0,-95,-100,-108,0,-109,-113
-78,-101,-80,-100,-97,-107,0,-95,-100,-108,0,-109,-113
-78,-101,-80,-100,-97,-107,0,-95,-100,-108,0,-109,-113
-88,-101,-80,-99,-103,-106,0,-95,-100,-108,0,-109,-113
-88,-101,-80,-99,-103,-106,0,-95,-100,-108,0,-109,-113
-88,-101,-80,-99,-103,-106,0,-95,-100,-108,0,-109,-113
-89,-101,-80,-96,-98,-101,0,-95,-100,-108,0,-109,-113
-89,-101,-80,-96,-98,-101,0,-95,-100,-108,0,-109,-113
-89,-101,-80,-96,-98,-101,0,-95,-100,-108,0,-109,-113
-86,-101,-80,-103,-95,-106,0,-95,-100,-108,0,-109,-113
-86,-101,-80,-103,-95,-106,0,-95,-100,-108,0,-109,-113
-83,-101,-80,-101,-98,-99,0,-95,-100,-108,0,-109,-113
-83,-101,-80,-101,-98,-99,0,-95,-100,-108,0,-109,-113
-86,-101,-80,-103,-104,-102,0,-95,-100,-108,0,-109,-113
-86,-101,-80,-103,-104,-102,0,-95,-100,-108,0,-109,-113
-86,-101,-80,-103,-104,-102,0,-95,-100,-108,0,-109,-113
-89,-101,-80,-99,-103,-98,0,-95,-100,-108,0,-109,-113
-89,-101,-80,-99,-103,-98,0,-95,-100,-108,0,-109,-113
-88,-101,-80,-101,-100,-101,0,-95,-100,-108,0,-109,-113
-88,-101,-80,-101,-100,-101,0,-95,-100,-108,0,-109,-113
-88,-101,-80,-101,-100,-101,0,-95,-100,-108,0,-109,-113
-85,-101,-80,-103,-104,-104,0,-95,-100,-108,0,-109,-113
-85,-101,-80,-103,-104,-104,0,-95,-100,-108,0,-109,-113
-86,-101,-80,-99,-105,-98,0,-95,-100,-108,0,-109,-113
-86,-101,-80,-99,-105,-98,0,-95,-100,-108,0,-109,-113
-86,-101,-80,-99,-105,-98,0,-95,-100,-108,0,-109,-113
-91,-101,-80,-101,-101,-107,0,-95,-100,-108,0,-109,-113
-91,-101,-80,-101,-101,-107,0,-95,-100,-108,0,-109,-113
-87,-101,-80,-98,-94,-103,0,-95,-100,-108,0,-109,-113
-87,-101,-80,-98,-94,-103,0,-95,-100,-108,0,-109,-113
-89,-101,-80,-98,-94,-103,0,-95,-100,-108,0,-109,-113
-89,-101,-80,-98,-94,-103,0,-95,-100,-108,0,-109,-113
-89,-101,-80,-98,-94,-103,0,-95,-100,-108,0,-109,-113
-88,-101,-80,-98,-94,-103,0,-95,-100,-108,0,-109,-113
-88,-101,-80,-98,-94,-103,0,-95,-100,-108,0,-109,-113
-94,-101,-80,-98,-94,-103,0,-95,-100,-108,0,-109,-113
-94,-101,-80,-98,-94,-103,0,-95,-100,-108,0,-109,-113
-94,-101,-80,-98,-94,-103,0,-95,-100,-108,0,-109,-113
-81,-101,-80,-98,-94,-103,0,-95,-100,-108,0,-109,-113
-81,-101,-80,-98,-94,-103,0,-95,-100,-108,0,-109,-113
-81,-101,-80,-98,-94,-103,0,-95,-100,-108,0,-109,-113
-81,-101,-80,-98,-94,-103,0,-95,-100,-108,0,-109,-113
-81,-101,-80,-98,-94,-103,0,-95,-100,-108,0,-109,-113
-88,-101,-80,-98,-94,-103,0,-95,-100,-108,0,-109,-113
-88,-101,-80,-98,-94,-103,0,-95,-100,-108,0,-109,-113
-93,-101,-80,-98,-94,-103,0,-95,-100,-108,0,-109,-113
-93,-101,-80,-98,-94,-103,0,-95,-100,-108,0,-109,-113
-93,-101,-80,-98,-94,-103,0,-95,-100,-108,0,-109,-113
-89,-101,-80,-98,-94,-103,0,-95,-100,-108,0,-109,-113
-89,-101,-80,-98,-94,-103,0,-95,-100,-108,0,-109,-113
-92,-101,-80,-98,-94,-103,0,-95,-100,-108,0,-109,-113
-92,-101,-80,-98,-94,-103,0,-95,-100,-108,0,-109,-113
-91,-101,-80,-98,-94,-103,0,-95,-100,-108,0,-109,-113
-91,-101,-80,-98,-94,-103,0,-95,-100,-108,0,-109,-113
-88,-101,-80,-98,-94,-103,0,-95,-100,-108,0,-109,-113
-88,-101,-80,-98,-94,-103,0,-95,-100,-108,0,-109,-113
-88,-101,-80,-98,-94,-103,0,-95,-100,-108,0,-109,-113
-89,-101,-80,-98,-94,-103,0,-95,-100,-108,0,-109,-113
-89,-101,-80,-98,-94,-103,0,-95,-100,-108,0,-109,-113
-89,-101,-80,-98,-94,-103,0,-95,-100,-108,0,-109,-113
-84,-101,-80,-98,-94,-103,0,-95,-100,-108,0,-109,-113
-84,-101,-80,-98,-94,-103,0,-95,-100,-108,0,-109,-113
-81,-101,-80,-98,-94,-103,0,-95,-100,-108,0,-109,-113
-81,-101,-80,-98,-94,-103,0,-95,-100,-108,0,-109,-113
-81,-101,-80,-98,-94,-103,0,-95,-100,-108,0,-109,-113
-88,-101,-80,-98,-94,-103,0,-95,-100,-108,0,-109,-113
-88,-101,-80,-98,-94,-103,0,-95,-100,-108,0,-109,-113
-83,-101,-80,-98,-94,-103,0,-95,-100,-108,0,-109,-113
-83,-101,-80,-98,-94,-103,0,-95,-100,-108,0,-109,-113
-83,-101,-80,-98,-94,-103,0,-95,-100,-108,0,-109,-113
-91,-101,-80,-98,-94,-103,0,-95,-100,-108,0,-109,-113
-91,-101,-80,-98,-94,-103,0,-95,-100,-108,0,-109,-113
-81,-101,-80,-98,-94,-103,0,-95,-100,-108,0,-109,-113
-81,-101,-80,-98,-94,-103,0,-95,-100,-108,0,-109,-113
-81,-101,-80,-98,-94,-103,0,-95,-100,-108,0,-109,-113
-83,-101,-80,-98,-94,-103,0,-95,-100,-108,0,-109,-113
-83,-101,-80,-98,-94,-103,0,-95,-100,-108,0,-109,-113
-83,-101,-80,-98,-94,-103,0,-95,-100,-108,0,-109,-113
-83,-101,-80,-98,-94,-103,0,-95,-100,-108,0,-109,-113
-83,-101,-80,-98,-94,-103,0,-95,-100,-108,0,-109,-113
-90,-101,-80,-98,-94,-103,0,-95,-100,-108,0,-109,-113
-90,-101,-80,-98,-94,-103,0,-95,-100,-108,0,-109,-113
-79,-101,-80,-98,-94,-103,0,-95,-100,-108,0,-109,-113
-79,-101,-80,-98,-94,-103,0,-95,-100,-108,0,-109,-113
-79,-101,-80,-98,-94,-103,0,-95,-100,-108,0,-109,-113
-82,-101,-80,-98,-94,-103,0,-95,-100,-108,0,-109,-113
-82,-101,-80,-98,-94,-103,0,-95,-100,-108,0,-109,-113
-88,-101,-80,-98,-94,-103,0,-95,-100,-108,0,-109,-113
-88,-101,-80,-98,-94,-103,0,-95,-100,-108,0,-109,-113
-85,-101,-80,-98,-94,-103,0,-95,-100,-108,0,-109,-113
-85,-101,-80,-98,-94,-103,0,-95,-100,-108,0,-109,-113
-85,-101,-80,-98,-94,-103,0,-95,-100,-108,0,-109,-113
-88,-101,-80,-98,-94,-103,0,-95,-100,-108,0,-109,-113
-88,-101,-80,-98,-94,-103,0,-95,-100,-108,0,-109,-113
-94,-101,-80,-98,-94,-103,0,-95,-100,-108,0,-109,-113
-94,-101,-80,-98,-94,-103,0,-95,-100,-108,0,-109,-113
-94,-101,-80,-98,-94,-103,0,-95,-100,-108,0,-109,-113
-94,-101,-80,-98,-94,-103,0,-95,-100,-108,0,-109,-113
-94,-101,-80,-98,-94,-103,0,-95,-100,-108,0,-109,-113
-95,-101,-80,-98,-94,-103,0,-95,-100,-108,0,-109,-113
-95,-101,-80,-98,-94,-103,0,-95,-100,-108,0,-109,-113
-91,-101,-80,-98,-94,-103,0,-95,-100,-108,0,-109,-113
-91,-101,-80,-98,-94,-103,0,-95,-100,-108,0,-109,-113
-91,-101,-80,-98,-94,-103,0,-95,-100,-108,0,-109,-113
-96,-101,-80,-98,-94,-103,0,-95,-100,-108,0,-109,-113
-96,-101,-80,-98,-94,-103,0,-95,-100,-108,0,-109,-113
-99,-101,-80,-98,-94,-103,0,-95,-100,-108,0,-109,-113
-99,-101,-80,-98,-94,-103,0,-95,-100,-108,0,-109,-113
-99,-101,-80,-98,-94,-103,0,-95,-100,-108,0,-109,-113
-100,-101,-80,-98,-94,-103,0,-95,-100,-108,0,-109,-113
-100,-101,-80,-98,-94,-103,0,-95,-100,-108,0,-109,-113
-100,-101,-80,-98,-94,-103,0,-95,-100,-108,0,-109,-113
-101,-101,-80,-98,-94,-103,0,-95,-100,-108,0,-109,-113
-101,-101,-80,-98,-94,-103,0,-95,-100,-108,0,-109,-113
-101,-101,-80,-98,-94,-103,0,-95,-100,-108,0,-109,-113
-100,-101,-80,-98,-94,-103,0,-95,-100,-108,0,-109,-113
-100,-101,-80,-98,-94,-103,0,-95,-100,-108,0,-109,-113
-104,-101,-80,-98,-94,-103,0,-95,-100,-108,0,-109,-113
-104,-101,-80,-98,-94,-103,0,-95,-100,-108,0,-109,-113
-103,-101,-80,-98,-94,-103,0,-95,-100,-108,0,-109,-113
-103,-101,-80,-98,-94,-103,0,-95,-100,-108,0,-109,-113
-103,-101,-80,-98,-94,-103,0,-95,-100,-108,0,-109,-113
-80,-101,-80,-100,-102,-100,0,-95,-100,-108,0,-109,-113
-80,-101,-80,-100,-102,-100,0,-95,-100,-108,0,-109,-113
-89,-101,-80,-100,-93,-96,0,-95,-100,-108,0,-109,-113
-89,-101,-80,-100,-93,-96,0,-95,-100,-108,0,-109,-113
-87,-101,-80,-95,-91,-97,0,-95,-100,-108,0,-109,-113
-87,-101,-80,-95,-91,-97,0,-95,-100,-108,0,-109,-113
-87,-101,-80,-95,-91,-97,0,-95,-100,-108,0,-109,-113
-88,-101,-80,-94,-84,-99,0,-95,-100,-108,0,-109,-113
-88,-101,-80,-94,-84,-99,0,-95,-100,-108,0,-109,-113
-88,-101,-80,-103,-93,-97,0,-95,-100,-108,0,-109,-113
-88,-101,-80,-103,-93,-97,0,-95,-100,-108,0,-109,-113
-88,-101,-80,-103,-93,-97,0,-95,-100,-108,0,-109,-113
-97,-101,-80,-103,-102,-92,0,-95,-100,-108,0,-109,-113
-97,-101,-80,-103,-102,-92,0,-95,-100,-108,0,-109,-113
-95,-101,-80,-103,-98,-94,0,-95,-100,-108,0,-109,-113
-95,-101,-80,-103,-98,-94,0,-95,-100,-108,0,-109,-113
-101,-101,-80,-104,-95,-100,0,-95,-100,-108,0,-109,-113
-101,-101,-80,-104,-95,-100,0,-95,-100,-108,0,-109,-113
-98,-101,-80,-94,-85,-101,0,-95,-100,-108,-108,-109,-113
-98,-101,-80,-94,-85,-101,0,-95,-100,-108,-108,-109,-113
-98,-101,-80,-94,-85,-101,0,-95,-100,-108,-108,-109,-113
-95,-101,-80,-95,-88,-98,0,-95,-100,-108,-108,-109,-113
-95,-101,-80,-95,-88,-98,0,-95,-100,-108,-108,-109,-113
-90,-101,-80,-101,-98,-88,0,-95,-100,-108,-108,-109,-113
-90,-101,-80,-101,-98,-88,0,-95,-100,-108,-108,-109,-113
-93,-101,-80,-103,-92,-92,0,-95,-100,-108,-108,-109,-113
-93,-101,-80,-103,-92,-92,0,-95,-100,-108,-108,-109,-113
-93,-101,-80,-103,-92,-92,0,-95,-100,-108,-108,-109,-113
-95,-101,-80,-96,-92,-95,0,-95,-100,-108,-108,-109,-113
-95,-101,-80,-96,-92,-95,0,-95,-100,-108,-108,-109,-113
-95,-101,-80,-96,-92,-95,0,-95,-100,-108,-108,-109,-113
-93,-101,-80,-101,-90,-93,0,-95,-100,-108,-108,-109,-113
-93,-101,-80,-101,-90,-93,0,-95,-100,-108,-108,-109,-113
-93,-101,-80,-103,-96,-93,0,-95,-100,-108,-108,-109,-113
-93,-101,-80,-103,-96,-93,0,-95,-100,-108,-108,-109,-113
-93,-101,-80,-108,-102,-90,0,-95,-100,-108,-108,-109,-113
-93,-101,-80,-108,-102,-90,0,-95,-100,-108,-108,-109,-113
-93,-101,-80,-106,-103,-90,0,-95,-100,-108,-108,-109,-113
-93,-101,-80,-106,-103,-90,0,-95,-100,-108,-108,-109,-113
-93,-101,-80,-106,-103,-90,0,-95,-100,-108,-108,-109,-113
-92,-101,-80,-103,-98,-93,0,-95,-100,-108,-108,-109,-113
-92,-101,-80,-103,-98,-93,0,-95,-100,-108,-108,-109,-113
-92,-101,-80,-104,-96,-93,0,-95,-100,-108,-108,-109,-113
-92,-101,-80,-104,-96,-93,0,-95,-100,-108,-108,-109,-113
-92,-101,-80,-104,-96,-93,0,-95,-100,-108,-108,-109,-113
-92,-101,-80,-106,-97,-93,0,-95,-100,-108,-108,-109,-113
-92,-101,-80,-106,-97,-93,0,-95,-100,-108,-108,-109,-113
-92,-101,-80,-106,-97,-93,0,-95,-100,-108,-108,-109,-113
-93,-101,-80,-106,-100,-92,0,-95,-100,-108,-108,-109,-113
-93,-101,-80,-106,-100,-92,0,-95,-100,-108,-108,-109,-113
-93,-101,-80,-107,-100,-92,0,-95,-100,-108,-108,-109,-113
-93,-101,-80,-107,-100,-92,0,-95,-100,-108,-108,-109,-113
-86,-101,-80,-98,-91,-101,0,-95,-100,-108,-108,-109,-113
-86,-101,-80,-98,-91,-101,0,-95,-100,-108,-108,-109,-113
-86,-101,-80,-95,-90,-99,0,-95,-100,-108,-108,-109,-113
-86,-101,-80,-95,-90,-99,0,-95,-100,-108,-108,-109,-113
-86,-101,-80,-95,-90,-99,0,-95,-100,-108,-108,-109,-113
-88,-101,-80,-99,-103,-97,0,-95,-100,-108,-108,-109,-113
-88,-101,-80,-99,-103,-97,0,-95,-100,-108,-108,-109,-113
-88,-101,-80,-99,-103,-97,0,-95,-100,-108,-108,-109,-113
-86,-101,-80,-98,-99,-102,0,-95,-100,-111,-108,-109,-113
-86,-101,-80,-98,-99,-102,0,-95,-100,-111,-108,-109,-113
-86,-101,-80,-98,-99,-102,0,-95,-100,-111,-108,-109,-113
-83,-101,-80,-100,-102,-98,0,-95,-100,-111,-108,-109,-113
-83,-101,-80,-100,-102,-98,0,-95,-100,-111,-108,-109,-113
-82,-101,-80,-102,-91,-100,0,-95,-100,-111,-108,-109,-113
-82,-101,-80,-102,-91,-100,0,-95,-100,-111,-108,-109,-113
-82,-101,-80,-102,-91,-100,0,-95,-100,-111,-108,-109,-113
-91,-101,-80,-97,-94,-93,-106,-95,-100,-111,-108,-109,-113
-91,-101,-80,-97,-94,-93,-106,-95,-100,-111,-108,-109,-113
-91,-101,-80,-94,-96,-108,-106,-95,-100,-111,-108,-109,-113
-91,-101,-80,-94,-96,-108,-106,-95,-100,-111,-108,-109,-113
-91,-101,-80,-94,-96,-108,-106,-95,-100,-111,-108,-109,-113
-90,-101,-80,-95,-92,-97,-106,-95,-100,-111,-108,-109,-113
-90,-101,-80,-95,-92,-97,-106,-95,-100,-111,-108,-109,-113
-94,-101,-80,-96,-94,-95,-106,-95,-100,-111,-108,-109,-113
-94,-101,-80,-96,-94,-95,-106,-95,-100,-111,-108,-109,-113
-94,-101,-80,-96,-94,-95,-106,-95,-100,-111,-108,-109,-113
-91,-101,-80,-102,-106,-96,-106,-95,-100,-111,-108,-109,-113
-91,-101,-80,-102,-106,-96,-106,-95,-100,-111,-108,-109,-113
-95,-101,-80,-98,-101,-96,-106,-95,-100,-111,-108,-109,-113
-95,-101,-80,-98,-101,-96,-106,-95,-100,-111,-108,-109,-113
-95,-101,-80,-98,-101,-96,-106,-95,-100,-111,-108,-109,-113
-91,-101,-80,-98,-96,-98,-106,-95,-100,-111,-108,-109,-113
-91,-101,-80,-98,-96,-98,-106,-95,-100,-111,-108,-109,-113
-92,-101,-80,-99,-96,-94,-106,-95,-100,-111,-108,-109,-113
-92,-101,-80,-99,-96,-94,-106,-95,-100,-111,-108,-109,-113
-92,-101,-80,-99,-96,-94,-106,-95,-100,-111,-108,-109,-113
-90,-106,-80,-103,-98,-91,-106,-95,-100,-111,-108,-109,-106
-90,-106,-80,-103,-98,-91,-106,-95,-100,-111,-108,-109,-106
-90,-106,-80,-101,-92,-94,-106,-95,-100,-111,-108,-109,-106
-90,-106,-80,-101,-92,-94,-106,-95,-100,-111,-108,-109,-106
-90,-106,-80,-101,-92,-94,-106,-95,-100,-111,-108,-109,-106
-90,-106,-80,-100,-95,-96,-106,-95,-100,-111,-108,-109,-106
-90,-106,-80,-100,-95,-96,-106,-95,-100,-111,-108,-109,-106
-86,-106,-80,-95,-99,-101,-106,-95,-100,-111,-108,-109,-106
-86,-106,-80,-95,-99,-101,-106,-95,-100,-111,-108,-109,-106
-95,-102,-80,-103,-94,-97,-106,-95,-100,-111,-108,-109,-106
-95,-102,-80,-103,-94,-97,-106,-95,-100,-111,-108,-109,-106
-90,-102,-80,-110,-98,-90,-106,-95,-100,-111,-108,-109,-106
-90,-102,-80,-110,-98,-90,-106,-95,-100,-111,-108,-109,-106
-90,-102,-80,-110,-98,-90,-106,-95,-100,-111,-108,-109,-106
-91,-102,-80,-101,-92,-90,-106,-95,-100,-111,-108,-109,-106
-91,-102,-80,-101,-92,-90,-106,-95,-100,-111,-108,-109,-106
-91,-102,-80,-100,-92,-94,-106,-95,-100,-111,-108,-109,-106
-91,-102,-80,-100,-92,-94,-106,-95,-100,-111,-108,-109,-106
-91,-102,-80,-100,-92,-94,-106,-95,-100,-111,-108,-109,-106
-89,-102,-80,-96,-91,-91,-106,-95,-100,-111,-108,-109,-106
-89,-102,-80,-96,-91,-91,-106,-95,-100,-111,-108,-109,-106
-89,-102,-80,-96,-91,-91,-106,-95,-100,-111,-108,-109,-106
-89,-102,-80,-96,-91,-91,-106,-95,-100,-111,-108,-109,-106
-89,-102,-80,-96,-91,-91,-106,-95,-100,-111,-108,-109,-106
-90,-102,-80,-96,-91,-91,-106,-95,-100,-111,-108,-109,-106
-90,-102,-80,-96,-91,-91,-106,-95,-100,-111,-108,-109,-106
-89,-102,-80,-96,-91,-91,-106,-95,-100,-111,-108,-109,-106
-89,-102,-80,-96,-91,-91,-106,-95,-100,-111,-108,-109,-106
-89,-102,-80,-96,-91,-91,-106,-95,-100,-111,-108,-109,-106
-89,-102,-80,-96,-91,-91,-106,-95,-100,-111,-108,-109,-106
-89,-102,-80,-96,-91,-91,-106,-95,-100,-111,-108,-109,-106
-77,-102,-80,-96,-91,-91,-106,-95,-100,-111,-108,-109,-106
-77,-102,-80,-96,-91,-91,-106,-95,-100,-111,-108,-109,-106
-77,-102,-80,-96,-91,-91,-106,-95,-100,-111,-108,-109,-106
-82,-102,-80,-96,-91,-91,-106,-95,-100,-111,-108,-109,-106
-82,-102,-80,-96,-91,-91,-106,-95,-100,-111,-108,-109,-106
-87,-102,-80,-96,-91,-91,-106,-95,-100,-111,-108,-109,-106
-87,-102,-80,-96,-91,-91,-106,-95,-100,-111,-108,-109,-106
